lab2/lab2_server/cla16_tb.vcd
$date
   Fri Oct 10 17:11:18 2025
$end
$version
  2022.2
$end
$timescale
  1ps
$end
$scope module cla16_tb $end
$var reg 16 ! a [15:0] $end
$var reg 16 " b [15:0] $end
$var reg 1 # carry_in $end
$var wire 16 $ sum [15:0] $end
$var wire 1 % carry_out $end
$var wire 1 & overflow $end
$var wire 1 ' generate_out $end
$var wire 1 ( propagate_out $end
$var reg 32 ) sum_errors [31:0] $end
$var reg 32 * carry_errors [31:0] $end
$var reg 32 + overflow_errors [31:0] $end
$var reg 32 , propagate_errors [31:0] $end
$var reg 32 - generate_errors [31:0] $end
$var reg 32 . total_tests [31:0] $end
$scope module cla16_inst $end
$var wire 16 / a [15:0] $end
$var wire 16 0 b [15:0] $end
$var wire 1 1 carry_in $end
$var reg 16 2 sum [15:0] $end
$var reg 1 3 carry_out $end
$var reg 1 4 overflow $end
$var reg 1 5 generate_out $end
$var reg 1 6 propagate_out $end
$var reg 4 7 g [3:0] $end
$var reg 4 8 p [3:0] $end
$var reg 5 9 c [4:0] $end
$var reg 1 : a15_eq_b15 $end
$var reg 1 ; sum15_ne_a15 $end
$var reg 2 < temp_gen [1:0] $end
$var reg 2 = temp_prop [1:0] $end
$scope module gen_cla16[0].cla4_unit $end
$var wire 4 > a [3:0] $end
$var wire 4 ? b [3:0] $end
$var wire 1 @ carry_in $end
$var reg 4 A sum [3:0] $end
$var reg 1 B carry_out $end
$var reg 1 C overflow $end
$var reg 1 D generate_out $end
$var reg 1 E propagate_out $end
$var reg 4 F g [3:0] $end
$var reg 4 G p [3:0] $end
$var reg 5 H c [4:0] $end
$var reg 1 I temp_c1 $end
$var reg 2 J temp_c2_terms [1:0] $end
$var reg 1 K temp_c2_or $end
$var reg 3 L temp_c3_terms [2:0] $end
$var reg 2 M temp_c3_or_level1 [1:0] $end
$var reg 4 N temp_c4_terms [3:0] $end
$var reg 2 O temp_c4_or_level1 [1:0] $end
$var reg 1 P temp_c4_or_level2 $end
$var reg 1 Q a3_eq_b3 $end
$var reg 1 R sum3_ne_a3 $end
$var reg 1 S temp_gen_1 $end
$var reg 1 T temp_gen_2 $end
$var reg 1 U temp_prop_1 $end
$var reg 1 V temp_prop_2 $end
$upscope $end
$scope module gen_cla16[1].cla4_unit $end
$var wire 4 W a [7:4] $end
$var wire 4 X b [7:4] $end
$var wire 1 Y carry_in $end
$var reg 4 Z sum [7:4] $end
$var reg 1 [ carry_out $end
$var reg 1 \ overflow $end
$var reg 1 ] generate_out $end
$var reg 1 ^ propagate_out $end
$var reg 4 _ g [3:0] $end
$var reg 4 ` p [3:0] $end
$var reg 5 a c [4:0] $end
$var reg 1 b temp_c1 $end
$var reg 2 c temp_c2_terms [1:0] $end
$var reg 1 d temp_c2_or $end
$var reg 3 e temp_c3_terms [2:0] $end
$var reg 2 f temp_c3_or_level1 [1:0] $end
$var reg 4 g temp_c4_terms [3:0] $end
$var reg 2 h temp_c4_or_level1 [1:0] $end
$var reg 1 i temp_c4_or_level2 $end
$var reg 1 j a3_eq_b3 $end
$var reg 1 k sum3_ne_a3 $end
$var reg 1 l temp_gen_1 $end
$var reg 1 m temp_gen_2 $end
$var reg 1 n temp_prop_1 $end
$var reg 1 o temp_prop_2 $end
$upscope $end
$scope module gen_cla16[2].cla4_unit $end
$var wire 4 p a [11:8] $end
$var wire 4 q b [11:8] $end
$var wire 1 r carry_in $end
$var reg 4 s sum [11:8] $end
$var reg 1 t carry_out $end
$var reg 1 u overflow $end
$var reg 1 v generate_out $end
$var reg 1 w propagate_out $end
$var reg 4 x g [3:0] $end
$var reg 4 y p [3:0] $end
$var reg 5 z c [4:0] $end
$var reg 1 { temp_c1 $end
$var reg 2 | temp_c2_terms [1:0] $end
$var reg 1 } temp_c2_or $end
$var reg 3 ~ temp_c3_terms [2:0] $end
$var reg 2 !! temp_c3_or_level1 [1:0] $end
$var reg 4 "! temp_c4_terms [3:0] $end
$var reg 2 #! temp_c4_or_level1 [1:0] $end
$var reg 1 $! temp_c4_or_level2 $end
$var reg 1 %! a3_eq_b3 $end
$var reg 1 &! sum3_ne_a3 $end
$var reg 1 '! temp_gen_1 $end
$var reg 1 (! temp_gen_2 $end
$var reg 1 )! temp_prop_1 $end
$var reg 1 *! temp_prop_2 $end
$upscope $end
$scope module gen_cla16[3].cla4_unit $end
$var wire 4 +! a [15:12] $end
$var wire 4 ,! b [15:12] $end
$var wire 1 -! carry_in $end
$var reg 4 .! sum [15:12] $end
$var reg 1 /! carry_out $end
$var reg 1 0! overflow $end
$var reg 1 1! generate_out $end
$var reg 1 2! propagate_out $end
$var reg 4 3! g [3:0] $end
$var reg 4 4! p [3:0] $end
$var reg 5 5! c [4:0] $end
$var reg 1 6! temp_c1 $end
$var reg 2 7! temp_c2_terms [1:0] $end
$var reg 1 8! temp_c2_or $end
$var reg 3 9! temp_c3_terms [2:0] $end
$var reg 2 :! temp_c3_or_level1 [1:0] $end
$var reg 4 ;! temp_c4_terms [3:0] $end
$var reg 2 <! temp_c4_or_level1 [1:0] $end
$var reg 1 =! temp_c4_or_level2 $end
$var reg 1 >! a3_eq_b3 $end
$var reg 1 ?! sum3_ne_a3 $end
$var reg 1 @! temp_gen_1 $end
$var reg 1 A! temp_gen_2 $end
$var reg 1 B! temp_prop_1 $end
$var reg 1 C! temp_prop_2 $end
$upscope $end
$upscope $end
$scope begin Block281_1 $end
$var reg 32 D! i [31:0] $end
$scope begin Block281_2 $end
$var reg 16 E! rand_a [15:0] $end
$var reg 16 F! rand_b [15:0] $end
$var reg 1 G! rand_carry $end
$upscope $end
$upscope $end
$scope function calc_expected_propagate $end
$var reg 1 H! calc_expected_propagate $end
$var reg 16 I! test_a [15:0] $end
$var reg 16 J! test_b [15:0] $end
$var reg 4 K! group_propagate [3:0] $end
$upscope $end
$scope function calc_expected_generate $end
$var reg 1 L! calc_expected_generate $end
$var reg 16 M! test_a [15:0] $end
$var reg 16 N! test_b [15:0] $end
$var reg 4 O! group_generate [3:0] $end
$upscope $end
$scope task test_cla16 $end
$var reg 16 P! test_a [15:0] $end
$var reg 16 Q! test_b [15:0] $end
$var reg 1 R! test_carry_in $end
$var reg 16 S! expected_sum [15:0] $end
$var reg 1 T! expected_carry_out $end
$var reg 1 U! expected_overflow $end
$var reg 1 V! expected_propagate $end
$var reg 1 W! expected_generate $end
$var reg 17 X! full_result [16:0] $end
$upscope $end
$upscope $end
$enddefinitions $end
#0
$dumpvars
b0 !
b0 !!
b0 "
b0 "!
0#
b0 #!
b0 $
0$!
0%
1%!
0&
0&!
0'
0'!
0(
0(!
b0 )
0)!
b0 *
0*!
b0 +
b0 +!
b0 ,
b0 ,!
b0 -
0-!
b0 .
b0 .!
b0 /
0/!
b0 0
00!
01
01!
b0 2
02!
03
b0 3!
04
b0 4!
05
b0 5!
06
06!
b0 7
b0 7!
b0 8
08!
b0 9
b0 9!
1:
b0 :!
0;
b0 ;!
b0 <
b0 <!
b0 =
0=!
b0 >
1>!
b0 ?
0?!
0@
0@!
b0 A
0A!
0B
0B!
0C
0C!
0D
b0 D!
0E
b0 E!
b0 F
b0 F!
b0 G
0G!
b0 H
0H!
0I
b0 I!
b0 J
b0 J!
0K
b0 K!
b0 L
0L!
b0 M
b0 M!
b0 N
b0 N!
b0 O
b0 O!
0P
b0 P!
1Q
b0 Q!
0R
0R!
0S
b0 S!
0T
0T!
0U
0U!
0V
0V!
b0 W
0W!
b0 X
b0 X!
0Y
b0 Z
0[
0\
0]
0^
b0 _
b0 `
b0 a
0b
b0 c
0d
b0 e
b0 f
b0 g
b0 h
0i
1j
0k
0l
0m
0n
0o
b0 p
b0 q
0r
b0 s
0t
0u
0v
0w
b0 x
b0 y
b0 z
0{
b0 |
0}
b0 ~
$end
#10000
b0 !
b0 "
1#
b1 $
b1 .
11
b1 2
b1 9
1@
b1 A
b1 H
0I
b0 J
b0 L
b0 N
1R!
b1 S!
b1 X!
#20000
b1111111111111111 !
b1111111111111111 "
b0 "!
0#
b1111111111111110 $
1%
1%!
0&!
1'
1'!
1(!
b1111 +!
b1111 ,!
1-!
b10 .
b1111 .!
b1111111111111111 /
1/!
b1111111111111111 0
00!
01
11!
b1111111111111110 2
13
b1111 3!
04
b0 4!
15
b11111 5!
06!
b1111 7
b0 7!
b11110 9
b0 9!
1:
0;
b0 ;!
b11 <
b1111 >
1>!
b1111 ?
0?!
0@
1@!
b1110 A
1A!
1B
0C
1D
b1111 F
b0 G
b11110 H
0I
b1111111111111111 I!
b0 J
b1111111111111111 J!
b0 L
1L!
b1111111111111111 M!
b0 N
b1111111111111111 N!
b1111 O!
b1111111111111111 P!
1Q
b1111111111111111 Q!
0R
0R!
1S
b1111111111111110 S!
1T
1T!
b1111 W
1W!
b1111 X
b11111111111111110 X!
1Y
b1111 Z
1[
0\
1]
b1111 _
b0 `
b11111 a
0b
b0 c
b0 e
b0 g
1j
0k
1l
1m
b1111 p
b1111 q
1r
b1111 s
1t
0u
1v
b1111 x
b0 y
b11111 z
0{
b0 |
b0 ~
#30000
b1111111111111111 !
b1111111111111111 "
1#
b1111111111111111 $
b11 .
11
b1111111111111111 2
b11111 9
1@
b1111 A
b11111 H
0I
b0 J
b0 L
b0 N
1R!
b1111111111111111 S!
b11111111111111111 X!
#40000
b1010101010101010 !
b0 !!
b101010101010101 "
b0 "!
0#
b0 #!
0$!
0%
0%!
0&!
0'
0'!
1(
0(!
1)!
1*!
b1010 +!
b101 ,!
0-!
b100 .
b1111 .!
b1010101010101010 /
0/!
b101010101010101 0
01
01!
b1111111111111111 2
12!
03
b0 3!
04
b1111 4!
05
b0 5!
16
06!
b0 7
b0 7!
b1111 8
08!
b0 9
b0 9!
0:
b0 :!
0;
b0 ;!
b0 <
b0 <!
b11 =
0=!
b1010 >
0>!
b101 ?
0?!
0@
0@!
b1111 A
0A!
0B
1B!
1C!
0D
1E
b0 F
b1111 G
b0 H
1H!
0I
b1010101010101010 I!
b0 J
b101010101010101 J!
b1111 K!
b0 L
0L!
b1010101010101010 M!
b0 N
b101010101010101 N!
b0 O!
b1010101010101010 P!
0Q
b101010101010101 Q!
0R
0R!
0S
0T
0T!
1U
1V
1V!
b1010 W
0W!
b101 X
b1111111111111111 X!
0Y
b1111 Z
0[
0]
1^
b0 _
b1111 `
b0 a
0b
b0 c
0d
b0 e
b0 f
b0 g
b0 h
0i
0j
0k
0l
0m
1n
1o
b1010 p
b101 q
0r
b1111 s
0t
0v
1w
b0 x
b1111 y
b0 z
0{
b0 |
0}
b0 ~
#50000
b101010101010101 !
b1010101010101010 "
0%!
1&!
b101 +!
b1010 ,!
b101 .
b101010101010101 /
b1010101010101010 0
b0 3!
04
b1111 4!
0:
1;
b101 >
0>!
b1010 ?
1?!
b0 F
b1111 G
b101010101010101 I!
b1010101010101010 J!
b101010101010101 M!
b1010101010101010 N!
b101010101010101 P!
0Q
b1010101010101010 Q!
1R
b101 W
b1010 X
b0 _
b1111 `
0j
1k
b101 p
b1010 q
b0 x
b1111 y
#60000
b0 !
b0 "
b0 "!
b0 $
1%!
0&!
0(
0)!
0*!
b0 +!
b0 ,!
b110 .
b0 .!
b0 /
b0 0
00!
b0 2
02!
b0 3!
04
b0 4!
06
06!
b0 7!
b0 8
b0 9!
1:
0;
b0 ;!
b0 =
b0 >
1>!
b0 ?
0?!
b0 A
0B!
0C
0C!
0E
b0 F
b0 G
0H!
0I
b0 I!
b0 J
b0 J!
b0 K!
b0 L
b0 M!
b0 N
b0 N!
b0 P!
1Q
b0 Q!
0R
b0 S!
0U
0V
0V!
b0 W
b0 X
b0 X!
b0 Z
0\
0^
b0 _
b0 `
0b
b0 c
b0 e
b0 g
1j
0k
0n
0o
b0 p
b0 q
b0 s
0u
0w
b0 x
b0 y
0{
b0 |
b0 ~
#70000
b1111111111111111 !
b1111111111111111 "
b0 "!
b1111111111111110 $
1%
1%!
0&!
1'
1'!
1(!
b1111 +!
b1111 ,!
1-!
b111 .
b1111 .!
b1111111111111111 /
1/!
b1111111111111111 0
00!
11!
b1111111111111110 2
13
b1111 3!
04
b0 4!
15
b11111 5!
06!
b1111 7
b0 7!
b11110 9
b0 9!
1:
0;
b0 ;!
b11 <
b1111 >
1>!
b1111 ?
0?!
1@!
b1110 A
1A!
1B
0C
1D
b1111 F
b0 G
b11110 H
b1111111111111111 I!
b0 J
b1111111111111111 J!
b0 L
1L!
b1111111111111111 M!
b0 N
b1111111111111111 N!
b1111 O!
b1111111111111111 P!
1Q
b1111111111111111 Q!
0R
1S
b1111111111111110 S!
1T
1T!
b1111 W
1W!
b1111 X
b11111111111111110 X!
1Y
b1111 Z
1[
0\
1]
b1111 _
b0 `
b11111 a
0b
b0 c
b0 e
b0 g
1j
0k
1l
1m
b1111 p
b1111 q
1r
b1111 s
1t
0u
1v
b1111 x
b0 y
b11111 z
0{
b0 |
b0 ~
#80000
b11001100110011 !
b0 !!
b1100110011001100 "
b0 "!
b0 #!
b1111111111111111 $
0$!
0%
0%!
1&!
0'
0'!
1(
0(!
1)!
1*!
b11 +!
b1100 ,!
0-!
b1000 .
b1111 .!
b11001100110011 /
0/!
b1100110011001100 0
01!
b1111111111111111 2
12!
03
b0 3!
04
b1111 4!
05
b0 5!
16
06!
b0 7
b0 7!
b1111 8
08!
b0 9
b0 9!
0:
b0 :!
1;
b0 ;!
b0 <
b0 <!
b11 =
0=!
b11 >
0>!
b1100 ?
1?!
0@!
b1111 A
0A!
0B
1B!
1C!
0D
1E
b0 F
b1111 G
b0 H
1H!
0I
b11001100110011 I!
b0 J
b1100110011001100 J!
b1111 K!
b0 L
0L!
b11001100110011 M!
b0 N
b1100110011001100 N!
b0 O!
b11001100110011 P!
0Q
b1100110011001100 Q!
1R
0S
b1111111111111111 S!
0T
0T!
1U
1V
1V!
b11 W
0W!
b1100 X
b1111111111111111 X!
0Y
b1111 Z
0[
0]
1^
b0 _
b1111 `
b0 a
0b
b0 c
0d
b0 e
b0 f
b0 g
b0 h
0i
0j
1k
0l
0m
1n
1o
b11 p
b1100 q
0r
b1111 s
0t
0v
1w
b0 x
b1111 y
b0 z
0{
b0 |
0}
b0 ~
#90000
b110011001100110 !
b1001100110011001 "
b110 +!
b1001 ,!
b1001 .
b110011001100110 /
b1001100110011001 0
b0 3!
b1111 4!
b110 >
b1001 ?
b0 F
b1111 G
b110011001100110 I!
b1001100110011001 J!
b110011001100110 M!
b1001100110011001 N!
b110011001100110 P!
b1001100110011001 Q!
b110 W
b1001 X
b0 _
b1111 `
b110 p
b1001 q
b0 x
b1111 y
#100000
b1000100010001 !
b10001000100010 "
b0 "!
b11001100110011 $
1%!
0&!
0*!
b1 +!
b10 ,!
b1010 .
b11 .!
b1000100010001 /
b10001000100010 0
00!
b11001100110011 2
12!
b0 3!
04
b11 4!
b1111 8
b0 9!
1:
0;
b0 ;!
b1 >
1>!
b10 ?
0?!
b11 A
0C
0C!
1E
b0 F
b11 G
b1000100010001 I!
b10001000100010 J!
b0 L
b1000100010001 M!
b0 N
b10001000100010 N!
b1000100010001 P!
1Q
b10001000100010 Q!
0R
b11001100110011 S!
0V
b1 W
b10 X
b11001100110011 X!
b11 Z
0\
1^
b0 _
b11 `
b0 e
b0 g
1j
0k
0o
b1 p
b10 q
b11 s
0u
1w
b0 x
b11 y
b0 ~
#110000
b100010001000100 !
b1000100010001000 "
b0 "!
b1100110011001100 $
0%!
1&!
0)!
1*!
b100 +!
b1000 ,!
b1011 .
b1100 .!
b100010001000100 /
b1000100010001000 0
b1100110011001100 2
12!
b0 3!
04
b1100 4!
06!
b0 7!
b1111 8
b0 9!
0:
1;
b0 ;!
b100 >
0>!
b1000 ?
1?!
b1100 A
0B!
1C!
1E
b0 F
b1100 G
0I
b100010001000100 I!
b0 J
b1000100010001000 J!
b0 L
b100010001000100 M!
b0 N
b1000100010001000 N!
b100010001000100 P!
0Q
b1000100010001000 Q!
1R
b1100110011001100 S!
0U
1V
b100 W
b1000 X
b1100110011001100 X!
b1100 Z
1^
b0 _
b1100 `
0b
b0 c
b0 e
b0 g
0j
1k
0n
1o
b100 p
b1000 q
b1100 s
1w
b0 x
b1100 y
0{
b0 |
b0 ~
#120000
b1111111111111111 !
b1111111111111111 "
b0 "!
b1111111111111110 $
1%
1%!
0&!
1'
1'!
0(
1(!
0*!
b1111 +!
b1111 ,!
1-!
b1100 .
b1111 .!
b1111111111111111 /
1/!
b1111111111111111 0
11!
b1111111111111110 2
02!
13
b1111 3!
04
b0 4!
15
b11111 5!
06
06!
b1111 7
b0 7!
b0 8
b11110 9
b0 9!
1:
0;
b0 ;!
b11 <
b0 =
b1111 >
1>!
b1111 ?
0?!
1@!
b1110 A
1A!
1B
0C!
1D
0E
b1111 F
b0 G
b11110 H
0H!
b1111111111111111 I!
b0 J
b1111111111111111 J!
b0 K!
b0 L
1L!
b1111111111111111 M!
b0 N
b1111111111111111 N!
b1111 O!
b1111111111111111 P!
1Q
b1111111111111111 Q!
0R
1S
b1111111111111110 S!
1T
1T!
0V
0V!
b1111 W
1W!
b1111 X
b11111111111111110 X!
1Y
b1111 Z
1[
1]
0^
b1111 _
b0 `
b11111 a
0b
b0 c
b0 e
b0 g
1j
0k
1l
1m
0o
b1111 p
b1111 q
1r
b1111 s
1t
1v
0w
b1111 x
b0 y
b11111 z
0{
b0 |
b0 ~
#130000
b0 !
b0 "
b0 "!
b0 $
0%
1%!
0&!
0'
0'!
0(!
b0 +!
b0 ,!
0-!
b1101 .
b0 .!
b0 /
0/!
b0 0
00!
01!
b0 2
03
b0 3!
04
b0 4!
05
b0 5!
06!
b0 7
b0 7!
b0 9
b0 9!
1:
0;
b0 ;!
b0 <
b0 >
1>!
b0 ?
0?!
0@!
b0 A
0A!
0B
0C
0D
b0 F
b0 G
b0 H
b0 I!
b0 J
b0 J!
b0 L
0L!
b0 M!
b0 N
b0 N!
b0 O!
b0 P!
1Q
b0 Q!
0R
0S
b0 S!
0T
0T!
b0 W
0W!
b0 X
b0 X!
0Y
b0 Z
0[
0\
0]
b0 _
b0 `
b0 a
0b
b0 c
b0 e
b0 g
1j
0k
0l
0m
b0 p
b0 q
0r
b0 s
0t
0u
0v
b0 x
b0 y
b0 z
0{
b0 |
b0 ~
#140000
b1010101010101010 !
b101010101010101 "
b0 "!
b1111111111111111 $
0%!
0&!
1(
1)!
1*!
b1010 +!
b101 ,!
b1110 .
b1111 .!
b1010101010101010 /
b101010101010101 0
b1111111111111111 2
12!
b0 3!
04
b1111 4!
16
06!
b0 7!
b1111 8
b0 9!
0:
0;
b0 ;!
b11 =
b1010 >
0>!
b101 ?
0?!
b1111 A
1B!
1C!
1E
b0 F
b1111 G
1H!
0I
b1010101010101010 I!
b0 J
b101010101010101 J!
b1111 K!
b0 L
b1010101010101010 M!
b0 N
b101010101010101 N!
b1010101010101010 P!
0Q
b101010101010101 Q!
0R
b1111111111111111 S!
1U
1V
1V!
b1010 W
b101 X
b1111111111111111 X!
b1111 Z
1^
b0 _
b1111 `
0b
b0 c
b0 e
b0 g
0j
0k
1n
1o
b1010 p
b101 q
b1111 s
1w
b0 x
b1111 y
0{
b0 |
b0 ~
#150000
b101010101010101 !
b1010101010101010 "
0%!
1&!
b101 +!
b1010 ,!
b1111 .
b101010101010101 /
b1010101010101010 0
b0 3!
04
b1111 4!
0:
1;
b101 >
0>!
b1010 ?
1?!
b0 F
b1111 G
b101010101010101 I!
b1010101010101010 J!
b101010101010101 M!
b1010101010101010 N!
b101010101010101 P!
0Q
b1010101010101010 Q!
1R
b101 W
b1010 X
b0 _
b1111 `
0j
1k
b101 p
b1010 q
b0 x
b1111 y
#160000
b11001100110011 !
b11001100110011 "
b0 "!
b110011001100110 $
1%!
0&!
1'!
0(
0)!
0*!
b11 +!
b11 ,!
b10000 .
b110 .!
b11001100110011 /
b11001100110011 0
00!
01!
b110011001100110 2
02!
b11 3!
04
b0 4!
b110 5!
06
06!
b0 7
b0 7!
b0 8
b0 9!
1:
0;
b0 ;!
b0 =
b11 >
1>!
b11 ?
0?!
1@!
b110 A
0B!
0C
0C!
0D
0E
b11 F
b0 G
b110 H
0H!
0I
b11001100110011 I!
b0 J
b11001100110011 J!
b0 K!
b0 L
b11001100110011 M!
b0 N
b11001100110011 N!
b11001100110011 P!
1Q
b11001100110011 Q!
0R
1S
b110011001100110 S!
0U
0V
0V!
b11 W
b11 X
b110011001100110 X!
b110 Z
0\
0]
0^
b11 _
b0 `
b110 a
0b
b0 c
b0 e
b0 g
1j
0k
1l
0n
0o
b11 p
b11 q
b110 s
0u
0v
0w
b11 x
b0 y
b110 z
0{
b0 |
b0 ~
#170000
b1100110011001100 !
b1100110011001100 "
b0 "!
b1001100110011000 $
1%
1%!
0&!
0'!
1(!
b1100 +!
b1100 ,!
1-!
b10001 .
b1001 .!
b1100110011001100 /
1/!
b1100110011001100 0
00!
01!
b1001100110011000 2
13
b1100 3!
04
b0 4!
b11001 5!
06!
b0 7
b0 7!
b11110 9
b0 9!
1:
0;
b0 ;!
b1100 >
1>!
b1100 ?
0?!
0@!
b1000 A
1A!
1B
0C
0D
b1100 F
b0 G
b11000 H
b1100110011001100 I!
b0 J
b1100110011001100 J!
b0 L
b1100110011001100 M!
b0 N
b1100110011001100 N!
b1100110011001100 P!
1Q
b1100110011001100 Q!
0R
0S
b1001100110011000 S!
1T
1T!
b1100 W
b1100 X
b11001100110011000 X!
1Y
b1001 Z
1[
0\
0]
b1100 _
b0 `
b11001 a
0b
b0 c
b0 e
b0 g
1j
0k
0l
1m
b1100 p
b1100 q
1r
b1001 s
1t
0u
0v
b1100 x
b0 y
b11001 z
0{
b0 |
b0 ~
#180000
b111011101110111 !
b111011101110111 "
b0 "!
b1110111011101110 $
0%
1%!
1&
1&!
1'!
0(!
b111 +!
b111 ,!
0-!
b10010 .
b1110 .!
b111011101110111 /
0/!
b111011101110111 0
10!
01!
b1110111011101110 2
03
b111 3!
14
b0 4!
b1110 5!
06!
b0 7
b0 7!
b0 9
b0 9!
1:
1;
b0 ;!
b111 >
1>!
b111 ?
1?!
1@!
b1110 A
0A!
0B
1C
0D
b111 F
b0 G
b1110 H
b111011101110111 I!
b0 J
b111011101110111 J!
b0 L
b111011101110111 M!
b0 N
b111011101110111 N!
b111011101110111 P!
1Q
b111011101110111 Q!
1R
1S
b1110111011101110 S!
0T
0T!
1U!
b111 W
b111 X
b1110111011101110 X!
0Y
b1110 Z
0[
1\
0]
b111 _
b0 `
b1110 a
0b
b0 c
b0 e
b0 g
1j
1k
1l
0m
b111 p
b111 q
0r
b1110 s
0t
1u
0v
b111 x
b0 y
b1110 z
0{
b0 |
b0 ~
#190000
b1110111011101110 !
b1110111011101110 "
b0 "!
b1101110111011100 $
1%
1%!
0&
0&!
0'!
1(!
b1110 +!
b1110 ,!
1-!
b10011 .
b1101 .!
b1110111011101110 /
1/!
b1110111011101110 0
00!
01!
b1101110111011100 2
13
b1110 3!
04
b0 4!
b11101 5!
06!
b0 7
b0 7!
b11110 9
b0 9!
1:
0;
b0 ;!
b1110 >
1>!
b1110 ?
0?!
0@!
b1100 A
1A!
1B
0C
0D
b1110 F
b0 G
b11100 H
b1110111011101110 I!
b0 J
b1110111011101110 J!
b0 L
b1110111011101110 M!
b0 N
b1110111011101110 N!
b1110111011101110 P!
1Q
b1110111011101110 Q!
0R
0S
b1101110111011100 S!
1T
1T!
0U!
b1110 W
b1110 X
b11101110111011100 X!
1Y
b1101 Z
1[
0\
0]
b1110 _
b0 `
b11101 a
0b
b0 c
b0 e
b0 g
1j
0k
0l
1m
b1110 p
b1110 q
1r
b1101 s
1t
0u
0v
b1110 x
b0 y
b11101 z
0{
b0 |
b0 ~
#200000
b1 !
b0 "
b0 "!
b1 $
0%
1%!
0&!
0'!
1(
0(!
b0 +!
b0 ,!
0-!
b10100 .
b0 .!
b1 /
0/!
b0 0
00!
01!
b1 2
03
b0 3!
04
b0 4!
b0 5!
16
06!
b0 7
b0 7!
b1 8
b0 9
b0 9!
1:
0;
b0 ;!
b1 =
b1 >
1>!
b0 ?
0?!
0@!
b1 A
0A!
0B
0C
0D
1E
b0 F
b1 G
b0 H
1H!
0I
b1 I!
b0 J
b0 J!
b1 K!
b0 L
b1 M!
b0 N
b0 N!
b1 P!
1Q
b0 Q!
0R
0S
b1 S!
0T
0T!
1U
1V!
b0 W
b0 X
b1 X!
0Y
b0 Z
0[
0\
0]
b0 _
b0 `
b0 a
0b
b0 c
b0 e
b0 g
1j
0k
0l
0m
b0 p
b0 q
0r
b0 s
0t
0u
0v
b0 x
b0 y
b0 z
0{
b0 |
b0 ~
#210000
b1000000000000000 !
b0 "
b1000000000000000 $
b1000 +!
b10101 .
b1000 .!
b1000000000000000 /
b1000000000000000 2
12!
b0 3!
04
b1000 4!
16
b1000 8
0:
0;
b0 ;!
b10 =
b0 >
0>!
0?!
b0 A
1C!
0E
b0 F
b0 G
0I
b1000000000000000 I!
b0 J
b1000 K!
b0 L
b1000000000000000 M!
b0 N
b1000000000000000 P!
b1000000000000000 S!
0U
b0 W
b1000000000000000 X!
b0 p
#220000
b10 !
b0 "
b10 $
b0 +!
b10110 .
b0 .!
b10 /
00!
b10 2
02!
b0 3!
04
b0 4!
16
b1 8
1:
0;
b0 ;!
b1 =
b10 >
1>!
0?!
b10 A
0C!
1E
b0 F
b10 G
b10 I!
b0 J
b1 K!
b0 L
b10 M!
b0 N
b10 P!
b10 S!
1U
b0 W
b10 X!
b0 p
#230000
b100000000000000 !
b0 "
b100000000000000 $
b100 +!
b10111 .
b100 .!
b100000000000000 /
b100000000000000 2
12!
b0 3!
b100 4!
16
b1000 8
b0 9!
b0 ;!
b10 =
b0 >
b0 A
1C!
0E
b0 F
b0 G
b100000000000000 I!
b0 J
b1000 K!
b0 L
b100000000000000 M!
b0 N
b100000000000000 P!
b100000000000000 S!
0U
b0 W
b100000000000000 X!
b0 p
#240000
b1 !
b1000000000000000 "
b1000000000000001 $
b0 +!
b1000 ,!
b11000 .
b1000 .!
b1 /
b1000000000000000 0
b1000000000000001 2
b0 3!
04
b1000 4!
16
b1001 8
b0 9!
0:
1;
b0 ;!
b11 =
b1 >
0>!
b0 ?
1?!
b1 A
1C!
1E
b0 F
b1 G
0I
b1 I!
b0 J
b1000000000000000 J!
b1001 K!
b0 L
b1 M!
b0 N
b1000000000000000 N!
b1 P!
b1000000000000000 Q!
b1000000000000001 S!
1U
b0 W
b0 X
b1000000000000001 X!
b0 p
b0 q
#250000
b10 !
b100000000000000 "
b100000000000010 $
b0 +!
b100 ,!
b11001 .
b100 .!
b10 /
b100000000000000 0
00!
b100000000000010 2
b0 3!
04
b100 4!
b0 9!
1:
0;
b0 ;!
b10 >
1>!
b0 ?
0?!
b10 A
1C!
b0 F
b10 G
0I
b10 I!
b0 J
b100000000000000 J!
b0 L
b10 M!
b0 N
b100000000000000 N!
b10 P!
b100000000000000 Q!
b100000000000010 S!
1U
b0 W
b0 X
b100000000000010 X!
b0 p
b0 q
#260000
b1010101010101010 !
b101010101010101 "
b0 "!
b1111111111111111 $
0%!
0&!
1)!
1*!
b1010 +!
b101 ,!
b11010 .
b1111 .!
b1010101010101010 /
b101010101010101 0
b1111111111111111 2
12!
b0 3!
04
b1111 4!
06!
b0 7!
b1111 8
b0 9!
0:
0;
b0 ;!
b11 =
b1010 >
0>!
b101 ?
0?!
b1111 A
1B!
1C!
1E
b0 F
b1111 G
0I
b1010101010101010 I!
b0 J
b101010101010101 J!
b1111 K!
b0 L
b1010101010101010 M!
b0 N
b101010101010101 N!
b1010101010101010 P!
0Q
b101010101010101 Q!
0R
b1111111111111111 S!
1U
1V
b1010 W
b101 X
b1111111111111111 X!
b1111 Z
1^
b0 _
b1111 `
0b
b0 c
b0 e
b0 g
0j
0k
1n
1o
b1010 p
b101 q
b1111 s
1w
b0 x
b1111 y
0{
b0 |
b0 ~
#270000
b101010101010101 !
b1010101010101010 "
0%!
1&!
b101 +!
b1010 ,!
b11011 .
b101010101010101 /
b1010101010101010 0
b0 3!
04
b1111 4!
0:
1;
b101 >
0>!
b1010 ?
1?!
b0 F
b1111 G
b101010101010101 I!
b1010101010101010 J!
b101010101010101 M!
b1010101010101010 N!
b101010101010101 P!
0Q
b1010101010101010 Q!
1R
b101 W
b1010 X
b0 _
b1111 `
0j
1k
b101 p
b1010 q
b0 x
b1111 y
#280000
b1010101010101010 !
b1010101010101010 "
b0 "!
b101010101010100 $
1%
1%!
1&
1&!
0'!
0(
0(!
0)!
0*!
b1010 +!
1-!
b11100 .
b101 .!
b1010101010101010 /
1/!
10!
b101010101010100 2
02!
13
b1010 3!
14
b0 4!
b10101 5!
06
06!
b0 7!
b0 8
b11110 9
b0 9!
1:
1;
b0 ;!
b0 =
b1010 >
1>!
1?!
0@!
b100 A
0A!
1B
0B!
1C
0C!
0E
b1010 F
b0 G
b10100 H
0H!
0I
b1010101010101010 I!
b0 J
b0 K!
b0 L
b1010101010101010 M!
b0 N
b1010101010101010 P!
1Q
1R
0S
b101010101010100 S!
0T
1T!
0U
1U!
0V
0V!
b1010 W
b10101010101010100 X!
1Y
b101 Z
1[
1\
0^
b1010 _
b0 `
b10101 a
0b
b0 c
b0 e
b0 g
1j
1k
0l
0m
0n
0o
b1010 p
1r
b101 s
1t
1u
0w
b1010 x
b0 y
b10101 z
0{
b0 |
b0 ~
