lab2/lab2_server/cla4_tb.vcd
$date
   Fri Oct 10 17:09:44 2025
$end
$version
  2022.2
$end
$timescale
  1ps
$end
$scope module cla4_tb $end
$var reg 4 ! a [3:0] $end
$var reg 4 " b [3:0] $end
$var reg 1 # carry_in $end
$var wire 4 $ sum [3:0] $end
$var wire 1 % carry_out $end
$var wire 1 & overflow $end
$var wire 1 ' generate_out $end
$var wire 1 ( propagate_out $end
$var reg 32 ) sum_errors [31:0] $end
$var reg 32 * carry_errors [31:0] $end
$var reg 32 + overflow_errors [31:0] $end
$var reg 32 , propagate_errors [31:0] $end
$var reg 32 - generate_errors [31:0] $end
$var reg 32 . total_tests [31:0] $end
$scope module cla4_inst $end
$var wire 4 / a [3:0] $end
$var wire 4 0 b [3:0] $end
$var wire 1 1 carry_in $end
$var reg 4 2 sum [3:0] $end
$var reg 1 3 carry_out $end
$var reg 1 4 overflow $end
$var reg 1 5 generate_out $end
$var reg 1 6 propagate_out $end
$var reg 4 7 g [3:0] $end
$var reg 4 8 p [3:0] $end
$var reg 5 9 c [4:0] $end
$var reg 1 : temp_c1 $end
$var reg 2 ; temp_c2_terms [1:0] $end
$var reg 1 < temp_c2_or $end
$var reg 3 = temp_c3_terms [2:0] $end
$var reg 2 > temp_c3_or_level1 [1:0] $end
$var reg 4 ? temp_c4_terms [3:0] $end
$var reg 2 @ temp_c4_or_level1 [1:0] $end
$var reg 1 A temp_c4_or_level2 $end
$var reg 1 B a3_eq_b3 $end
$var reg 1 C sum3_ne_a3 $end
$var reg 1 D temp_gen_1 $end
$var reg 1 E temp_gen_2 $end
$var reg 1 F temp_prop_1 $end
$var reg 1 G temp_prop_2 $end
$upscope $end
$scope begin Block252_1 $end
$var reg 32 H i [31:0] $end
$scope begin Block252_2 $end
$var reg 4 I rand_a [3:0] $end
$var reg 4 J rand_b [3:0] $end
$var reg 1 K rand_carry $end
$upscope $end
$upscope $end
$scope begin Block265_3 $end
$var reg 32 L test_a [31:0] $end
$scope begin Block266_4 $end
$var reg 32 M test_b [31:0] $end
$scope begin Block266_5 $end
$var reg 4 I a_val [3:0] $end
$var reg 4 J b_val [3:0] $end
$var reg 1 K expected_prop $end
$var reg 1 N expected_gen $end
$upscope $end
$upscope $end
$upscope $end
$scope function calc_expected_propagate $end
$var reg 1 O calc_expected_propagate $end
$var reg 4 P test_a [3:0] $end
$var reg 4 Q test_b [3:0] $end
$var reg 4 R individual_propagate [3:0] $end
$var reg 32 S i [31:0] $end
$upscope $end
$scope function calc_expected_generate $end
$var reg 1 T calc_expected_generate $end
$var reg 4 U test_a [3:0] $end
$var reg 4 V test_b [3:0] $end
$var reg 4 W individual_generate [3:0] $end
$var reg 32 X i [31:0] $end
$upscope $end
$scope task test_cla4 $end
$var reg 4 Y test_a [3:0] $end
$var reg 4 Z test_b [3:0] $end
$var reg 1 [ test_carry_in $end
$var reg 4 \ expected_sum [3:0] $end
$var reg 1 ] expected_carry_out $end
$var reg 1 ^ expected_overflow $end
$var reg 1 _ expected_propagate $end
$var reg 1 ` expected_generate $end
$var reg 5 a full_result [4:0] $end
$upscope $end
$upscope $end
$enddefinitions $end
#0
$dumpvars
b0 !
b0 "
0#
b0 $
0%
0&
0'
0(
b0 )
b0 *
b0 +
b0 ,
b0 -
b0 .
b0 /
b0 0
01
b0 2
03
04
05
06
b0 7
b0 8
b0 9
0:
b0 ;
0<
b0 =
b0 >
b0 ?
b0 @
0A
1B
0C
0D
0E
0F
0G
b0 H
b0 I
b0 J
0K
b0 L
b0 M
0N
0O
b0 P
b0 Q
b0 R
b100 S
0T
b0 U
b0 V
b0 W
b100 X
b0 Y
b0 Z
0[
b0 \
0]
0^
0_
0`
b0 a
$end
#10000
b0 !
b0 "
1#
b1 $
b1 .
11
b1 2
b1 9
0:
b0 ;
b0 =
b0 ?
b100 S
b100 X
1[
b1 \
b1 a
#20000
b1111 !
b1111 "
0#
b1110 $
1%
1'
b10 .
b1111 /
b1111 0
01
b1110 2
13
04
15
b1111 7
b0 8
b11110 9
0:
b0 ;
b0 =
b0 ?
1B
0C
1D
1E
b1111 P
b1111 Q
b100 S
1T
b1111 U
b1111 V
b1111 W
b100 X
b1111 Y
b1111 Z
0[
b1110 \
1]
1`
b11110 a
#30000
b1111 !
b1111 "
1#
b1111 $
b11 .
11
b1111 2
b11111 9
0:
b0 ;
b0 =
b0 ?
b100 S
b100 X
1[
b1111 \
b11111 a
#40000
b1010 !
b101 "
0#
0%
0'
1(
b100 .
b1010 /
b101 0
01
b1111 2
03
04
05
16
b0 7
b1111 8
b0 9
0:
b0 ;
b0 =
b0 ?
0B
0C
0D
0E
1F
1G
1O
b1010 P
b101 Q
b1111 R
b100 S
0T
b1010 U
b101 V
b0 W
b100 X
b1010 Y
b101 Z
0[
0]
1_
0`
b1111 a
#50000
b101 !
b1010 "
b101 .
b101 /
b1010 0
04
b0 7
b1111 8
0B
1C
b101 P
b1010 Q
b100 S
b101 U
b1010 V
b100 X
b101 Y
b1010 Z
#60000
b0 !
b0 "
b0 $
0(
b110 .
b0 /
b0 0
b0 2
04
06
b0 7
b0 8
0:
b0 ;
b0 =
b0 ?
1B
0C
0F
0G
0O
b0 P
b0 Q
b0 R
b100 S
b0 U
b0 V
b100 X
b0 Y
b0 Z
b0 \
0_
b0 a
#70000
b1111 !
b1111 "
b1110 $
1%
1'
b111 .
b1111 /
b1111 0
b1110 2
13
04
15
b1111 7
b0 8
b11110 9
b0 ;
b0 =
b0 ?
1B
0C
1D
1E
b1111 P
b1111 Q
b100 S
1T
b1111 U
b1111 V
b1111 W
b100 X
b1111 Y
b1111 Z
b1110 \
1]
1`
b11110 a
#80000
b11 !
b1100 "
b1111 $
0%
0'
1(
b1000 .
b11 /
b1100 0
b1111 2
03
04
05
16
b0 7
b1111 8
b0 9
0:
b0 ;
b0 =
b0 ?
0B
1C
0D
0E
1F
1G
1O
b11 P
b1100 Q
b1111 R
b100 S
0T
b11 U
b1100 V
b0 W
b100 X
b11 Y
b1100 Z
b1111 \
0]
1_
0`
b1111 a
#90000
b110 !
b1001 "
b1001 .
b110 /
b1001 0
b0 7
b1111 8
b110 P
b1001 Q
b100 S
b110 U
b1001 V
b100 X
b110 Y
b1001 Z
#100000
b1 !
b10 "
b11 $
b1010 .
b1 /
b10 0
b11 2
04
16
b0 7
b11 8
b0 =
b0 ?
1B
0C
0G
b1 P
b10 Q
b11 R
b100 S
b1 U
b10 V
b100 X
b1 Y
b10 Z
b11 \
b11 a
#110000
b100 !
b1000 "
b1100 $
b1011 .
b100 /
b1000 0
b1100 2
04
16
b0 7
b1100 8
0:
b0 ;
b0 =
b0 ?
0B
1C
0F
1G
b100 P
b1000 Q
b1100 R
b100 S
b100 U
b1000 V
b100 X
b100 Y
b1000 Z
b1100 \
b1100 a
#120000
b1111 !
b1111 "
b1110 $
1%
1'
0(
b1100 .
b1111 /
b1111 0
b1110 2
13
04
15
06
b1111 7
b0 8
b11110 9
b0 ;
b0 =
b0 ?
1B
0C
1D
1E
0G
0O
b1111 P
b1111 Q
b0 R
b100 S
1T
b1111 U
b1111 V
b1111 W
b100 X
b1111 Y
b1111 Z
b1110 \
1]
0_
1`
b11110 a
#130000
b0 !
b0 "
b0 $
0%
0'
b1101 .
b0 /
b0 0
b0 2
03
04
05
b0 7
b0 8
b0 9
b0 ;
b0 =
b0 ?
1B
0C
0D
0E
b0 P
b0 Q
b100 S
0T
b0 U
b0 V
b0 W
b100 X
b0 Y
b0 Z
b0 \
0]
0`
b0 a
#140000
b1010 !
b101 "
b1111 $
1(
b1110 .
b1010 /
b101 0
b1111 2
04
16
b0 7
b1111 8
0:
b0 ;
b0 =
b0 ?
0B
0C
1F
1G
1O
b1010 P
b101 Q
b1111 R
b100 S
b1010 U
b101 V
b100 X
b1010 Y
b101 Z
b1111 \
1_
b1111 a
#150000
b101 !
b1010 "
b1111 .
b101 /
b1010 0
04
b0 7
b1111 8
0B
1C
b101 P
b1010 Q
b100 S
b101 U
b1010 V
b100 X
b101 Y
b1010 Z
#160000
b11 !
b11 "
b110 $
0(
b10000 .
b11 /
b11 0
b110 2
04
05
06
b11 7
b0 8
b110 9
0:
b0 ;
b0 =
b0 ?
1B
0C
1D
0F
0G
0O
b11 P
b11 Q
b0 R
b100 S
b11 U
b11 V
b11 W
b100 X
b11 Y
b11 Z
b110 \
0_
b110 a
#170000
b1100 !
b1100 "
b1000 $
1%
b10001 .
b1100 /
b1100 0
b1000 2
13
04
05
b1100 7
b0 8
b11000 9
b0 ;
b0 =
b0 ?
1B
0C
0D
1E
b1100 P
b1100 Q
b100 S
b1100 U
b1100 V
b1100 W
b100 X
b1100 Y
b1100 Z
b1000 \
1]
b11000 a
#180000
b111 !
b111 "
b1110 $
0%
1&
b10010 .
b111 /
b111 0
b1110 2
03
14
05
b111 7
b0 8
b1110 9
b0 ;
b0 =
b0 ?
1B
1C
1D
0E
b111 P
b111 Q
b100 S
b111 U
b111 V
b111 W
b100 X
b111 Y
b111 Z
b1110 \
0]
1^
b1110 a
#190000
b1110 !
b1110 "
b1100 $
1%
0&
b10011 .
b1110 /
b1110 0
b1100 2
13
04
05
b1110 7
b0 8
b11100 9
b0 ;
b0 =
b0 ?
1B
0C
0D
1E
b1110 P
b1110 Q
b100 S
b1110 U
b1110 V
b1110 W
b100 X
b1110 Y
b1110 Z
b1100 \
1]
0^
b11100 a
#200000
b1 !
b0 "
b1 $
0%
1(
b10100 .
b1 /
b0 0
b1 2
03
04
05
16
b0 7
b1 8
b0 9
0:
b0 ;
b0 =
b0 ?
1B
0C
0D
0E
1F
1O
b1 P
b0 Q
b1 R
b100 S
b1 U
b0 V
b0 W
b100 X
b1 Y
b0 Z
b1 \
0]
1_
b1 a
#210000
b1000 !
b0 "
b1000 $
b10101 .
b1000 /
b1000 2
04
16
b0 7
b1000 8
0:
b0 ;
b0 =
b0 ?
0B
0C
0F
1G
b1000 P
b1000 R
b100 S
b1000 U
b100 X
b1000 Y
b1000 \
b1000 a
#220000
b10 !
b0 "
b10 $
b10110 .
b10 /
b10 2
04
16
b0 7
b10 8
b0 ;
b0 =
b0 ?
1B
0C
1F
0G
b10 P
b10 R
b100 S
b10 U
b100 X
b10 Y
b10 \
b10 a
#230000
b100 !
b0 "
b100 $
b10111 .
b100 /
b100 2
16
b0 7
b100 8
b0 ;
b0 =
b0 ?
0F
1G
b100 P
b100 R
b100 S
b100 U
b100 X
b100 Y
b100 \
b100 a
#240000
b1 !
b1000 "
b1001 $
b11000 .
b1 /
b1000 0
b1001 2
04
16
b0 7
b1001 8
0:
b0 ;
b0 =
b0 ?
0B
1C
1F
1G
b1 P
b1000 Q
b1001 R
b100 S
b1 U
b1000 V
b100 X
b1 Y
b1000 Z
b1001 \
b1001 a
#250000
b10 !
b100 "
b110 $
b11001 .
b10 /
b100 0
b110 2
04
b0 7
b110 8
0:
b0 ;
b0 =
b0 ?
1B
0C
1F
1G
b10 P
b100 Q
b110 R
b100 S
b10 U
b100 V
b100 X
b10 Y
b100 Z
b110 \
b110 a
#260000
b1010 !
b101 "
b1111 $
b11010 .
b1010 /
b101 0
b1111 2
04
b0 7
b1111 8
0:
b0 ;
b0 =
b0 ?
0B
0C
1F
1G
b1010 P
b101 Q
b1111 R
b100 S
b1010 U
b101 V
b100 X
b1010 Y
b101 Z
b1111 \
b1111 a
#270000
b101 !
b1010 "
b11011 .
b101 /
b1010 0
04
b0 7
b1111 8
0B
1C
b101 P
b1010 Q
b100 S
b101 U
b1010 V
b100 X
b101 Y
b1010 Z
#280000
b1010 !
b1010 "
b100 $
1%
1&
0(
b11100 .
b1010 /
b100 2
13
14
06
b1010 7
b0 8
b10100 9
0:
b0 ;
b0 =
b0 ?
1B
1C
0D
0E
0F
0G
0O
b1010 P
b0 R
b100 S
b1010 U
b1010 W
b100 X
b1010 Y
b100 \
1]
1^
0_
b10100 a
#290000
b101 !
b101 "
b1010 $
0%
b11101 .
b101 /
b101 0
b1010 2
03
14
b101 7
b0 8
b1010 9
b0 ;
b0 =
b0 ?
1B
1C
0D
0E
b101 P
b101 Q
b100 S
b101 U
b101 V
b101 W
b100 X
b101 Y
b101 Z
b1010 \
0]
b1010 a
#300000
b1 !
b1 "
b10 $
0&
b11110 .
b1 /
b1 0
b10 2
04
b1 7
b0 8
b10 9
b0 ?
0C
0E
b1 P
b1 Q
b100 S
b1 U
b1 V
b1 W
b100 X
b1 Y
b1 Z
b10 \
0^
b10 a
#310000
b10 !
b10 "
b100 $
b11111 .
b10 /
b10 0
b100 2
b10 7
b0 8
b100 9
b0 ;
b0 =
b0 ?
0D
b10 P
b10 Q
b100 S
b10 U
b10 V
b10 W
b100 X
b10 Y
b10 Z
b100 \
b100 a
#320000
b100 !
b100 "
b1000 $
1&
b100000 .
b100 /
b100 0
b1000 2
14
b100 7
b0 8
b1000 9
b0 =
b0 ?
1C
0D
0E
b100 P
b100 Q
b100 S
b100 U
b100 V
b100 W
b100 X
b100 Y
b100 Z
b1000 \
1^
b1000 a
#330000
b1000 !
b1000 "
b0 $
1%
b100001 .
b1000 /
b1000 0
b0 2
13
14
b1000 7
b0 8
b10000 9
b0 ?
1B
1C
0E
b1000 P
b1000 Q
b100 S
b1000 U
b1000 V
b1000 W
b100 X
b1000 Y
b1000 Z
b0 \
1]
b10000 a
#340000
b0 !
b0 "
1#
b1 $
0%
0&
b100010 .
b0 /
b0 0
11
b1 2
03
04
b0 7
b0 8
b1 9
0:
b0 ;
b0 =
b0 ?
1B
0C
0E
b0 P
b0 Q
b100 S
b0 U
b0 V
b0 W
b100 X
b0 Y
b0 Z
1[
b1 \
0]
0^
b1 a
#350000
b1111 !
b0 "
b0 $
1%
1(
b100011 .
b1111 /
b0 2
13
04
16
b0 7
b1111 8
b11111 9
1:
b10 ;
1<
b100 =
b10 >
b1000 ?
b10 @
1A
0B
1C
1F
1G
1O
b1111 P
b1111 R
b100 S
b1111 U
b100 X
b1111 Y
b0 \
1]
1_
b10000 a
#360000
b0 !
b1111 "
b100100 .
b0 /
b1111 0
04
b0 7
b1111 8
0B
0C
b0 P
b1111 Q
b100 S
b0 U
b1111 V
b100 X
b0 Y
b1111 Z
#370000
b1111 !
b1111 "
b1111 $
1'
0(
b100101 .
b1111 /
b1111 2
04
15
06
b1111 7
b0 8
b11111 9
0:
b0 ;
0<
b0 =
b0 >
b0 ?
b0 @
0A
1B
0C
1D
1E
0F
0G
0O
b1111 P
b0 R
b100 S
1T
b1111 U
b1111 W
b100 X
b1111 Y
b1111 \
0_
1`
b11111 a
#380000
b111 !
b1 "
0#
b1000 $
0%
1&
0'
1(
b100110 .
b111 /
b1 0
01
b1000 2
03
14
05
16
b1 7
b110 8
b1110 9
0:
b1 ;
1<
b10 =
b11 >
b0 ?
1B
1C
0D
0E
1F
1G
1O
b111 P
b1 Q
b110 R
b100 S
0T
b111 U
b1 V
b1 W
b100 X
b111 Y
b1 Z
0[
b1000 \
0]
1^
1_
0`
b1000 a
#390000
b1000 !
b1111 "
b111 $
1%
b100111 .
b1000 /
b1111 0
b111 2
13
14
b1000 7
b111 8
b10000 9
0:
b0 ;
0<
b0 =
b0 >
b0 ?
1B
1C
0D
0E
1F
b1000 P
b1111 Q
b111 R
b100 S
b1000 U
b1111 V
b1000 W
b100 X
b1000 Y
b1111 Z
b111 \
1]
b10111 a
#400000
b111 !
b111 "
b1110 $
0%
0(
b101000 .
b111 /
b111 0
b1110 2
03
14
05
06
b111 7
b0 8
b1110 9
0:
b0 ;
b0 =
b0 ?
1B
1C
1D
0E
0F
0G
0O
b111 P
b111 Q
b0 R
b100 S
b111 U
b111 V
b111 W
b100 X
b111 Y
b111 Z
b1110 \
0]
0_
b1110 a
#410000
b1000 !
b1000 "
b0 $
1%
b101001 .
b1000 /
b1000 0
b0 2
13
14
05
b1000 7
b0 8
b10000 9
b0 ;
b0 =
b0 ?
1B
1C
0D
0E
b1000 P
b1000 Q
b100 S
b1000 U
b1000 V
b1000 W
b100 X
b1000 Y
b1000 Z
b0 \
1]
b10000 a
#420000
b100 !
b1 "
1#
b110 $
0%
0&
1(
b101010 .
b100 /
b1 0
11
b110 2
03
04
16
b0 7
b101 8
b11 9
1:
b0 ;
b0 =
b0 ?
1B
0C
0E
1F
1G
1O
b100 P
b1 Q
b101 R
b100 S
b100 U
b1 V
b0 W
b100 X
b100 Y
b1 Z
1[
b110 \
0]
0^
1_
b110 a
#430000
b11 !
b1101 "
b1 $
1%
b101011 .
b11 /
b1101 0
b1 2
13
04
b1 7
b1110 8
b11111 9
0:
b1 ;
1<
b10 =
b11 >
b100 ?
b10 @
1A
0B
0C
0D
1F
1G
b1 H
b11 P
b1101 Q
b1110 R
b100 S
b11 U
b1101 V
b1 W
b100 X
b11 Y
b1101 Z
b1 \
1]
b10001 a
#440000
b101 !
b10 "
b1000 $
0%
1&
b101100 .
b101 /
b10 0
b1000 2
03
14
b0 7
b111 8
b1111 9
1:
b10 ;
1<
b100 =
b10 >
b0 ?
b0 @
0A
1B
1C
0D
1F
1G
b10 H
b101 P
b10 Q
b111 R
b100 S
b101 U
b10 V
b0 W
b100 X
b101 Y
b10 Z
b1000 \
0]
1^
b1000 a
#450000
b1101 !
b110 "
b100 $
1%
0&
b101101 .
b1101 /
b110 0
b100 2
13
04
b100 7
b1011 8
b11111 9
b0 =
b0 >
b1 ?
b1 @
1A
0B
1C
0E
1G
b11 H
b1101 P
b110 Q
b1011 R
b100 S
b1101 U
b110 V
b100 W
b100 X
b1101 Y
b110 Z
b100 \
1]
0^
b10100 a
#460000
b1101 !
b1100 "
b1010 $
b101110 .
b1100 0
b1010 2
04
05
16
b1100 7
b1 8
b11011 9
b0 ;
0<
b0 =
b0 ?
b0 @
0A
1B
0C
1E
1F
0G
b100 H
b1100 Q
b1 R
b100 S
b1100 V
b1100 W
b100 X
b1100 Z
b1010 \
b11010 a
#470000
b110 !
b101 "
0#
b1011 $
0%
1&
b101111 .
b110 /
b101 0
01
b1011 2
03
14
05
b100 7
b11 8
b1000 9
0:
b0 ;
b0 =
b0 ?
1B
1C
0E
1F
b101 H
b110 P
b101 Q
b11 R
b100 S
b110 U
b101 V
b100 W
b100 X
b110 Y
b101 Z
0[
b1011 \
0]
1^
b1011 a
#480000
b101 !
b111 "
b1100 $
b110000 .
b101 /
b111 0
b1100 2
b101 7
b10 8
b1110 9
0:
b1 ;
1<
b0 =
b0 ?
0D
1F
b110 H
b101 P
b111 Q
b10 R
b100 S
b101 U
b111 V
b101 W
b100 X
b101 Y
b111 Z
b1100 \
b1100 a
#490000
b1111 !
b10 "
b1 $
1%
0&
b110001 .
b1111 /
b10 0
b1 2
13
04
16
b10 7
b1101 8
b11100 9
0:
b0 ;
0<
b1 =
b11 >
b10 ?
b1 @
1A
0B
1C
0D
0E
1F
1G
b111 H
b1111 P
b10 Q
b1101 R
b100 S
b1111 U
b10 V
b10 W
b100 X
b1111 Y
b10 Z
b1 \
1]
0^
b10001 a
#500000
b1000 !
b101 "
b1101 $
0%
b110010 .
b1000 /
b101 0
b1101 2
03
04
b0 7
b1101 8
b0 9
b0 =
b0 >
b0 ?
b0 @
0A
0C
0D
b1000 H
b1000 P
b101 Q
b100 S
b1000 U
b101 V
b0 W
b100 X
b1000 Y
b101 Z
b1101 \
0]
b1101 a
#510000
b1101 !
b1101 "
1#
b1011 $
1%
0(
b110011 .
b1101 /
b1101 0
11
b1011 2
13
04
05
06
b1101 7
b0 8
b11011 9
0:
b0 ;
b0 =
b0 ?
1B
0C
0D
1E
0F
0G
b1001 H
0O
b1101 P
b1101 Q
b0 R
b100 S
b1101 U
b1101 V
b1101 W
b100 X
b1101 Y
b1101 Z
1[
b1011 \
1]
0_
b11011 a
#520000
b0 !
b0 "
0#
b0 $
0%
b110100 .
b0 /
b0 0
01
b0 2
03
04
05
b0 7
b0 8
b0 9
0:
b0 ;
b0 =
b0 ?
1B
0C
0D
0E
b1010 H
b0 P
b0 Q
b100 S
b0 U
b0 V
b0 W
b100 X
#530000
b0 !
b1 "
b1 $
1(
b110101 .
b1 0
b1 2
16
b0 7
b1 8
0:
b0 ;
b0 =
b0 ?
1F
b1 M
1O
b1 Q
b1 R
b100 S
b1 V
b100 X
#540000
b0 !
b10 "
b10 $
b110110 .
b10 0
b10 2
b0 7
b10 8
0:
b0 ;
b0 =
b0 ?
1F
b10 M
b10 Q
b10 R
b100 S
b10 V
b100 X
#550000
b0 !
b11 "
b11 $
b110111 .
b11 0
b11 2
b0 7
b11 8
0:
b0 ;
b0 =
b0 ?
1F
b11 M
b11 Q
b11 R
b100 S
b11 V
b100 X
#560000
b0 !
b100 "
b100 $
b111000 .
b100 0
b100 2
16
b0 7
b100 8
0:
b0 ;
b0 =
b0 ?
0F
1G
b100 M
b100 Q
b100 R
b100 S
b100 V
b100 X
#570000
b0 !
b101 "
b101 $
b111001 .
b101 0
b101 2
16
b0 7
b101 8
0:
b0 ;
b0 =
b0 ?
1F
b101 M
b101 Q
b101 R
b100 S
b101 V
b100 X
#580000
b0 !
b110 "
b110 $
b111010 .
b110 0
b110 2
b0 7
b110 8
0:
b0 ;
b0 =
b0 ?
1F
b110 M
b110 Q
b110 R
b100 S
b110 V
b100 X
#590000
b0 !
b111 "
b111 $
b111011 .
b111 0
b111 2
b0 7
b111 8
0:
b0 ;
b0 =
b0 ?
1F
b111 M
b111 Q
b111 R
b100 S
b111 V
b100 X
#600000
b0 !
b1000 "
b1000 $
b111100 .
b1000 0
b1000 2
04
16
b0 7
b1000 8
0:
b0 ;
b0 =
b0 ?
0B
1C
0F
1G
b1000 M
b1000 Q
b1000 R
b100 S
b1000 V
b100 X
#610000
b0 !
b1001 "
b1001 $
b111101 .
b1001 0
b1001 2
16
b0 7
b1001 8
0:
b0 ;
b0 =
b0 ?
1F
b1001 M
b1001 Q
b1001 R
b100 S
b1001 V
b100 X
#620000
b0 !
b1010 "
b1010 $
b111110 .
b1010 0
b1010 2
b0 7
b1010 8
0:
b0 ;
b0 =
b0 ?
1F
b1010 M
b1010 Q
b1010 R
b100 S
b1010 V
b100 X
#630000
b0 !
b1011 "
b1011 $
b111111 .
b1011 0
b1011 2
b0 7
b1011 8
0:
b0 ;
b0 =
b0 ?
1F
b1011 M
b1011 Q
b1011 R
b100 S
b1011 V
b100 X
#640000
b0 !
b1100 "
b1100 $
b1000000 .
b1100 0
b1100 2
16
b0 7
b1100 8
0:
b0 ;
b0 =
b0 ?
0F
1G
b1100 M
b1100 Q
b1100 R
b100 S
b1100 V
b100 X
#650000
b0 !
b1101 "
b1101 $
b1000001 .
b1101 0
b1101 2
16
b0 7
b1101 8
0:
b0 ;
b0 =
b0 ?
1F
b1101 M
b1101 Q
b1101 R
b100 S
b1101 V
b100 X
#660000
b0 !
b1110 "
b1110 $
b1000010 .
b1110 0
b1110 2
b0 7
b1110 8
0:
b0 ;
b0 =
b0 ?
1F
b1110 M
b1110 Q
b1110 R
b100 S
b1110 V
b100 X
#670000
b0 !
b1111 "
b1111 $
b1000011 .
b1111 0
b1111 2
b0 7
b1111 8
0:
b0 ;
b0 =
b0 ?
1F
b1111 M
b1111 Q
b1111 R
b100 S
b1111 V
b100 X
#680000
b1 !
b0 "
b1 $
b1000100 .
b1 /
b0 0
b1 2
04
16
b0 7
b1 8
b0 ;
b0 =
b0 ?
1B
0C
1F
0G
b1 L
b0 M
b1 P
b0 Q
b1 R
b100 S
b1 U
b0 V
b100 X
#690000
b1 !
b1 "
b10 $
0(
b1000101 .
b1 0
b10 2
06
b1 7
b0 8
b10 9
0:
b0 ;
b0 =
b0 ?
0D
0F
b1 M
0O
b1 Q
b0 R
b100 S
b1 V
b1 W
b100 X
#700000
b1 !
b10 "
b11 $
1(
b1000110 .
b10 0
b11 2
16
b0 7
b11 8
b0 9
0:
b0 ;
b0 =
b0 ?
0D
1F
b10 M
1O
b10 Q
b11 R
b100 S
b10 V
b0 W
b100 X
#710000
b1 !
b11 "
b100 $
b1000111 .
b11 0
b100 2
b1 7
b10 8
b110 9
0:
b1 ;
1<
b0 =
b0 ?
0D
1F
b11 M
b11 Q
b10 R
b100 S
b11 V
b1 W
b100 X
#720000
b1 !
b100 "
b101 $
b1001000 .
b100 0
b101 2
16
b0 7
b101 8
b0 9
0:
b0 ;
0<
b0 =
b0 ?
0D
1F
1G
b100 M
b100 Q
b101 R
b100 S
b100 V
b0 W
b100 X
#730000
b1 !
b101 "
b110 $
b1001001 .
b101 0
b110 2
16
b1 7
b100 8
b10 9
0:
b0 ;
b0 =
b0 ?
0D
0F
b101 M
b101 Q
b100 R
b100 S
b101 V
b1 W
b100 X
#740000
b1 !
b110 "
b111 $
b1001010 .
b110 0
b111 2
16
b0 7
b111 8
b0 9
0:
b0 ;
b0 =
b0 ?
0D
1F
b110 M
b110 Q
b111 R
b100 S
b110 V
b0 W
b100 X
#750000
b1 !
b111 "
b1000 $
1&
b1001011 .
b111 0
b1000 2
14
b1 7
b110 8
b1110 9
0:
b1 ;
1<
b10 =
b11 >
b0 ?
1C
0D
1F
b111 M
b111 Q
b110 R
b100 S
b111 V
b1 W
b100 X
#760000
b1 !
b1000 "
b1001 $
0&
b1001100 .
b1000 0
b1001 2
04
b0 7
b1001 8
b0 9
0:
b0 ;
0<
b0 =
b0 >
b0 ?
0B
1C
0D
1F
1G
b1000 M
b1000 Q
b1001 R
b100 S
b1000 V
b0 W
b100 X
#770000
b1 !
b1001 "
b1010 $
b1001101 .
b1001 0
b1010 2
16
b1 7
b1000 8
b10 9
0:
b0 ;
b0 =
b0 ?
0D
0F
b1001 M
b1001 Q
b1000 R
b100 S
b1001 V
b1 W
b100 X
#780000
b1 !
b1010 "
b1011 $
b1001110 .
b1010 0
b1011 2
16
b0 7
b1011 8
b0 9
0:
b0 ;
b0 =
b0 ?
0D
1F
b1010 M
b1010 Q
b1011 R
b100 S
b1010 V
b0 W
b100 X
#790000
b1 !
b1011 "
b1100 $
b1001111 .
b1011 0
b1100 2
b1 7
b1010 8
b110 9
0:
b1 ;
1<
b0 =
b0 ?
0D
1F
b1011 M
b1011 Q
b1010 R
b100 S
b1011 V
b1 W
b100 X
#800000
b1 !
b1100 "
b1101 $
b1010000 .
b1100 0
b1101 2
b0 7
b1101 8
b0 9
0:
b0 ;
0<
b0 =
b0 ?
0D
1F
1G
b1100 M
b1100 Q
b1101 R
b100 S
b1100 V
b0 W
b100 X
#810000
b1 !
b1101 "
b1110 $
b1010001 .
b1101 0
b1110 2
16
b1 7
b1100 8
b10 9
0:
b0 ;
b0 =
b0 ?
0D
0F
b1101 M
b1101 Q
b1100 R
b100 S
b1101 V
b1 W
b100 X
#820000
b1 !
b1110 "
b1111 $
b1010010 .
b1110 0
b1111 2
16
b0 7
b1111 8
b0 9
0:
b0 ;
b0 =
b0 ?
0D
1F
b1110 M
b1110 Q
b1111 R
b100 S
b1110 V
b0 W
b100 X
#830000
b1 !
b1111 "
b0 $
1%
b1010011 .
b1111 0
b0 2
13
04
b1 7
b1110 8
b11110 9
0:
b1 ;
1<
b10 =
b11 >
b100 ?
b10 @
1A
0C
0D
1F
b1111 M
b1111 Q
b1110 R
b100 S
b1111 V
b1 W
b100 X
#840000
b10 !
b0 "
b10 $
0%
b1010100 .
b10 /
b0 0
b10 2
03
04
16
b0 7
b10 8
b0 9
b0 ;
0<
b0 =
b0 >
b0 ?
b0 @
0A
1B
0C
0D
0G
b10 L
b0 M
b10 P
b0 Q
b10 R
b100 S
b10 U
b0 V
b0 W
b100 X
#850000
b10 !
b1 "
b11 $
b1010101 .
b1 0
b11 2
b0 7
b11 8
0:
b0 ;
b0 =
b0 ?
1F
b1 M
b1 Q
b11 R
b100 S
b1 V
b100 X
#860000
b10 !
b10 "
b100 $
0(
b1010110 .
b10 0
b100 2
06
b10 7
b0 8
b100 9
0:
b0 ;
b0 =
b0 ?
0D
0F
b10 M
0O
b10 Q
b0 R
b100 S
b10 V
b10 W
b100 X
#870000
b10 !
b11 "
b101 $
1(
b1010111 .
b11 0
b101 2
16
b10 7
b1 8
0:
b0 ;
b0 =
b0 ?
1F
b11 M
1O
b11 Q
b1 R
b100 S
b11 V
b100 X
#880000
b10 !
b100 "
b110 $
b1011000 .
b100 0
b110 2
16
b0 7
b110 8
b0 9
0:
b0 ;
b0 =
b0 ?
0D
1F
1G
b100 M
b100 Q
b110 R
b100 S
b100 V
b0 W
b100 X
#890000
b10 !
b101 "
b111 $
b1011001 .
b101 0
b111 2
b0 7
b111 8
0:
b0 ;
b0 =
b0 ?
1F
b101 M
b101 Q
b111 R
b100 S
b101 V
b100 X
#900000
b10 !
b110 "
b1000 $
1&
b1011010 .
b110 0
b1000 2
14
16
b10 7
b100 8
b1100 9
0:
b0 ;
b1 =
b11 >
b0 ?
1C
0D
0F
b110 M
b110 Q
b100 R
b100 S
b110 V
b10 W
b100 X
#910000
b10 !
b111 "
b1001 $
b1011011 .
b111 0
b1001 2
16
b10 7
b101 8
0:
b0 ;
b1 =
b0 ?
1F
b111 M
b111 Q
b101 R
b100 S
b111 V
b100 X
#920000
b10 !
b1000 "
b1010 $
0&
b1011100 .
b1000 0
b1010 2
04
b0 7
b1010 8
b0 9
0:
b0 ;
b0 =
b0 >
b0 ?
0B
1C
0D
1F
1G
b1000 M
b1000 Q
b1010 R
b100 S
b1000 V
b0 W
b100 X
#930000
b10 !
b1001 "
b1011 $
b1011101 .
b1001 0
b1011 2
b0 7
b1011 8
0:
b0 ;
b0 =
b0 ?
1F
b1001 M
b1001 Q
b1011 R
b100 S
b1001 V
b100 X
#940000
b10 !
b1010 "
b1100 $
b1011110 .
b1010 0
b1100 2
16
b10 7
b1000 8
b100 9
0:
b0 ;
b0 =
b0 ?
0D
0F
b1010 M
b1010 Q
b1000 R
b100 S
b1010 V
b10 W
b100 X
