lab2/lab2_server/rca32_tb.vcd
$date
   Fri Oct 10 00:32:01 2025
$end
$version
  2022.2
$end
$timescale
  1ps
$end
$scope module rca32_tb $end
$var reg 32 ! a [31:0] $end
$var reg 32 " b [31:0] $end
$var reg 1 # carry_in $end
$var wire 32 $ sum [31:0] $end
$var wire 1 % carry_out $end
$var wire 1 & overflow $end
$var reg 32 ' sum_errors [31:0] $end
$var reg 32 ( carry_errors [31:0] $end
$var reg 32 ) overflow_errors [31:0] $end
$var reg 32 * total_tests [31:0] $end
$scope module rca_inst $end
$var wire 32 + a [31:0] $end
$var wire 32 , b [31:0] $end
$var wire 1 - carry_in $end
$var reg 32 . sum [31:0] $end
$var reg 1 / carry_out $end
$var reg 1 0 overflow $end
$var reg 33 1 carry_chain [32:0] $end
$scope module gen_full_adders[0].fa_stage $end
$var wire 1 2 a $end
$var wire 1 3 b $end
$var wire 1 4 carry_in $end
$var reg 1 5 sum $end
$var reg 1 6 carry_out $end
$var reg 1 7 generate_out $end
$var reg 1 8 propagate_out $end
$var reg 1 9 a_xor_b $end
$var reg 1 : a_and_b $end
$var reg 1 ; xor_result_and_cin $end
$upscope $end
$scope module gen_full_adders[1].fa_stage $end
$var wire 1 < a $end
$var wire 1 = b $end
$var wire 1 > carry_in $end
$var reg 1 ? sum $end
$var reg 1 @ carry_out $end
$var reg 1 A generate_out $end
$var reg 1 B propagate_out $end
$var reg 1 C a_xor_b $end
$var reg 1 D a_and_b $end
$var reg 1 E xor_result_and_cin $end
$upscope $end
$scope module gen_full_adders[2].fa_stage $end
$var wire 1 F a $end
$var wire 1 G b $end
$var wire 1 H carry_in $end
$var reg 1 I sum $end
$var reg 1 J carry_out $end
$var reg 1 K generate_out $end
$var reg 1 L propagate_out $end
$var reg 1 M a_xor_b $end
$var reg 1 N a_and_b $end
$var reg 1 O xor_result_and_cin $end
$upscope $end
$scope module gen_full_adders[3].fa_stage $end
$var wire 1 P a $end
$var wire 1 Q b $end
$var wire 1 R carry_in $end
$var reg 1 S sum $end
$var reg 1 T carry_out $end
$var reg 1 U generate_out $end
$var reg 1 V propagate_out $end
$var reg 1 W a_xor_b $end
$var reg 1 X a_and_b $end
$var reg 1 Y xor_result_and_cin $end
$upscope $end
$scope module gen_full_adders[4].fa_stage $end
$var wire 1 Z a $end
$var wire 1 [ b $end
$var wire 1 \ carry_in $end
$var reg 1 ] sum $end
$var reg 1 ^ carry_out $end
$var reg 1 _ generate_out $end
$var reg 1 ` propagate_out $end
$var reg 1 a a_xor_b $end
$var reg 1 b a_and_b $end
$var reg 1 c xor_result_and_cin $end
$upscope $end
$scope module gen_full_adders[5].fa_stage $end
$var wire 1 d a $end
$var wire 1 e b $end
$var wire 1 f carry_in $end
$var reg 1 g sum $end
$var reg 1 h carry_out $end
$var reg 1 i generate_out $end
$var reg 1 j propagate_out $end
$var reg 1 k a_xor_b $end
$var reg 1 l a_and_b $end
$var reg 1 m xor_result_and_cin $end
$upscope $end
$scope module gen_full_adders[6].fa_stage $end
$var wire 1 n a $end
$var wire 1 o b $end
$var wire 1 p carry_in $end
$var reg 1 q sum $end
$var reg 1 r carry_out $end
$var reg 1 s generate_out $end
$var reg 1 t propagate_out $end
$var reg 1 u a_xor_b $end
$var reg 1 v a_and_b $end
$var reg 1 w xor_result_and_cin $end
$upscope $end
$scope module gen_full_adders[7].fa_stage $end
$var wire 1 x a $end
$var wire 1 y b $end
$var wire 1 z carry_in $end
$var reg 1 { sum $end
$var reg 1 | carry_out $end
$var reg 1 } generate_out $end
$var reg 1 ~ propagate_out $end
$var reg 1 !! a_xor_b $end
$var reg 1 "! a_and_b $end
$var reg 1 #! xor_result_and_cin $end
$upscope $end
$scope module gen_full_adders[8].fa_stage $end
$var wire 1 $! a $end
$var wire 1 %! b $end
$var wire 1 &! carry_in $end
$var reg 1 '! sum $end
$var reg 1 (! carry_out $end
$var reg 1 )! generate_out $end
$var reg 1 *! propagate_out $end
$var reg 1 +! a_xor_b $end
$var reg 1 ,! a_and_b $end
$var reg 1 -! xor_result_and_cin $end
$upscope $end
$scope module gen_full_adders[9].fa_stage $end
$var wire 1 .! a $end
$var wire 1 /! b $end
$var wire 1 0! carry_in $end
$var reg 1 1! sum $end
$var reg 1 2! carry_out $end
$var reg 1 3! generate_out $end
$var reg 1 4! propagate_out $end
$var reg 1 5! a_xor_b $end
$var reg 1 6! a_and_b $end
$var reg 1 7! xor_result_and_cin $end
$upscope $end
$scope module gen_full_adders[10].fa_stage $end
$var wire 1 8! a $end
$var wire 1 9! b $end
$var wire 1 :! carry_in $end
$var reg 1 ;! sum $end
$var reg 1 <! carry_out $end
$var reg 1 =! generate_out $end
$var reg 1 >! propagate_out $end
$var reg 1 ?! a_xor_b $end
$var reg 1 @! a_and_b $end
$var reg 1 A! xor_result_and_cin $end
$upscope $end
$scope module gen_full_adders[11].fa_stage $end
$var wire 1 B! a $end
$var wire 1 C! b $end
$var wire 1 D! carry_in $end
$var reg 1 E! sum $end
$var reg 1 F! carry_out $end
$var reg 1 G! generate_out $end
$var reg 1 H! propagate_out $end
$var reg 1 I! a_xor_b $end
$var reg 1 J! a_and_b $end
$var reg 1 K! xor_result_and_cin $end
$upscope $end
$scope module gen_full_adders[12].fa_stage $end
$var wire 1 L! a $end
$var wire 1 M! b $end
$var wire 1 N! carry_in $end
$var reg 1 O! sum $end
$var reg 1 P! carry_out $end
$var reg 1 Q! generate_out $end
$var reg 1 R! propagate_out $end
$var reg 1 S! a_xor_b $end
$var reg 1 T! a_and_b $end
$var reg 1 U! xor_result_and_cin $end
$upscope $end
$scope module gen_full_adders[13].fa_stage $end
$var wire 1 V! a $end
$var wire 1 W! b $end
$var wire 1 X! carry_in $end
$var reg 1 Y! sum $end
$var reg 1 Z! carry_out $end
$var reg 1 [! generate_out $end
$var reg 1 \! propagate_out $end
$var reg 1 ]! a_xor_b $end
$var reg 1 ^! a_and_b $end
$var reg 1 _! xor_result_and_cin $end
$upscope $end
$scope module gen_full_adders[14].fa_stage $end
$var wire 1 `! a $end
$var wire 1 a! b $end
$var wire 1 b! carry_in $end
$var reg 1 c! sum $end
$var reg 1 d! carry_out $end
$var reg 1 e! generate_out $end
$var reg 1 f! propagate_out $end
$var reg 1 g! a_xor_b $end
$var reg 1 h! a_and_b $end
$var reg 1 i! xor_result_and_cin $end
$upscope $end
$scope module gen_full_adders[15].fa_stage $end
$var wire 1 j! a $end
$var wire 1 k! b $end
$var wire 1 l! carry_in $end
$var reg 1 m! sum $end
$var reg 1 n! carry_out $end
$var reg 1 o! generate_out $end
$var reg 1 p! propagate_out $end
$var reg 1 q! a_xor_b $end
$var reg 1 r! a_and_b $end
$var reg 1 s! xor_result_and_cin $end
$upscope $end
$scope module gen_full_adders[16].fa_stage $end
$var wire 1 t! a $end
$var wire 1 u! b $end
$var wire 1 v! carry_in $end
$var reg 1 w! sum $end
$var reg 1 x! carry_out $end
$var reg 1 y! generate_out $end
$var reg 1 z! propagate_out $end
$var reg 1 {! a_xor_b $end
$var reg 1 |! a_and_b $end
$var reg 1 }! xor_result_and_cin $end
$upscope $end
$scope module gen_full_adders[17].fa_stage $end
$var wire 1 ~! a $end
$var wire 1 !" b $end
$var wire 1 "" carry_in $end
$var reg 1 #" sum $end
$var reg 1 $" carry_out $end
$var reg 1 %" generate_out $end
$var reg 1 &" propagate_out $end
$var reg 1 '" a_xor_b $end
$var reg 1 (" a_and_b $end
$var reg 1 )" xor_result_and_cin $end
$upscope $end
$scope module gen_full_adders[18].fa_stage $end
$var wire 1 *" a $end
$var wire 1 +" b $end
$var wire 1 ," carry_in $end
$var reg 1 -" sum $end
$var reg 1 ." carry_out $end
$var reg 1 /" generate_out $end
$var reg 1 0" propagate_out $end
$var reg 1 1" a_xor_b $end
$var reg 1 2" a_and_b $end
$var reg 1 3" xor_result_and_cin $end
$upscope $end
$scope module gen_full_adders[19].fa_stage $end
$var wire 1 4" a $end
$var wire 1 5" b $end
$var wire 1 6" carry_in $end
$var reg 1 7" sum $end
$var reg 1 8" carry_out $end
$var reg 1 9" generate_out $end
$var reg 1 :" propagate_out $end
$var reg 1 ;" a_xor_b $end
$var reg 1 <" a_and_b $end
$var reg 1 =" xor_result_and_cin $end
$upscope $end
$scope module gen_full_adders[20].fa_stage $end
$var wire 1 >" a $end
$var wire 1 ?" b $end
$var wire 1 @" carry_in $end
$var reg 1 A" sum $end
$var reg 1 B" carry_out $end
$var reg 1 C" generate_out $end
$var reg 1 D" propagate_out $end
$var reg 1 E" a_xor_b $end
$var reg 1 F" a_and_b $end
$var reg 1 G" xor_result_and_cin $end
$upscope $end
$scope module gen_full_adders[21].fa_stage $end
$var wire 1 H" a $end
$var wire 1 I" b $end
$var wire 1 J" carry_in $end
$var reg 1 K" sum $end
$var reg 1 L" carry_out $end
$var reg 1 M" generate_out $end
$var reg 1 N" propagate_out $end
$var reg 1 O" a_xor_b $end
$var reg 1 P" a_and_b $end
$var reg 1 Q" xor_result_and_cin $end
$upscope $end
$scope module gen_full_adders[22].fa_stage $end
$var wire 1 R" a $end
$var wire 1 S" b $end
$var wire 1 T" carry_in $end
$var reg 1 U" sum $end
$var reg 1 V" carry_out $end
$var reg 1 W" generate_out $end
$var reg 1 X" propagate_out $end
$var reg 1 Y" a_xor_b $end
$var reg 1 Z" a_and_b $end
$var reg 1 [" xor_result_and_cin $end
$upscope $end
$scope module gen_full_adders[23].fa_stage $end
$var wire 1 \" a $end
$var wire 1 ]" b $end
$var wire 1 ^" carry_in $end
$var reg 1 _" sum $end
$var reg 1 `" carry_out $end
$var reg 1 a" generate_out $end
$var reg 1 b" propagate_out $end
$var reg 1 c" a_xor_b $end
$var reg 1 d" a_and_b $end
$var reg 1 e" xor_result_and_cin $end
$upscope $end
$scope module gen_full_adders[24].fa_stage $end
$var wire 1 f" a $end
$var wire 1 g" b $end
$var wire 1 h" carry_in $end
$var reg 1 i" sum $end
$var reg 1 j" carry_out $end
$var reg 1 k" generate_out $end
$var reg 1 l" propagate_out $end
$var reg 1 m" a_xor_b $end
$var reg 1 n" a_and_b $end
$var reg 1 o" xor_result_and_cin $end
$upscope $end
$scope module gen_full_adders[25].fa_stage $end
$var wire 1 p" a $end
$var wire 1 q" b $end
$var wire 1 r" carry_in $end
$var reg 1 s" sum $end
$var reg 1 t" carry_out $end
$var reg 1 u" generate_out $end
$var reg 1 v" propagate_out $end
$var reg 1 w" a_xor_b $end
$var reg 1 x" a_and_b $end
$var reg 1 y" xor_result_and_cin $end
$upscope $end
$scope module gen_full_adders[26].fa_stage $end
$var wire 1 z" a $end
$var wire 1 {" b $end
$var wire 1 |" carry_in $end
$var reg 1 }" sum $end
$var reg 1 ~" carry_out $end
$var reg 1 !# generate_out $end
$var reg 1 "# propagate_out $end
$var reg 1 ## a_xor_b $end
$var reg 1 $# a_and_b $end
$var reg 1 %# xor_result_and_cin $end
$upscope $end
$scope module gen_full_adders[27].fa_stage $end
$var wire 1 &# a $end
$var wire 1 '# b $end
$var wire 1 (# carry_in $end
$var reg 1 )# sum $end
$var reg 1 *# carry_out $end
$var reg 1 +# generate_out $end
$var reg 1 ,# propagate_out $end
$var reg 1 -# a_xor_b $end
$var reg 1 .# a_and_b $end
$var reg 1 /# xor_result_and_cin $end
$upscope $end
$scope module gen_full_adders[28].fa_stage $end
$var wire 1 0# a $end
$var wire 1 1# b $end
$var wire 1 2# carry_in $end
$var reg 1 3# sum $end
$var reg 1 4# carry_out $end
$var reg 1 5# generate_out $end
$var reg 1 6# propagate_out $end
$var reg 1 7# a_xor_b $end
$var reg 1 8# a_and_b $end
$var reg 1 9# xor_result_and_cin $end
$upscope $end
$scope module gen_full_adders[29].fa_stage $end
$var wire 1 :# a $end
$var wire 1 ;# b $end
$var wire 1 <# carry_in $end
$var reg 1 =# sum $end
$var reg 1 ># carry_out $end
$var reg 1 ?# generate_out $end
$var reg 1 @# propagate_out $end
$var reg 1 A# a_xor_b $end
$var reg 1 B# a_and_b $end
$var reg 1 C# xor_result_and_cin $end
$upscope $end
$scope module gen_full_adders[30].fa_stage $end
$var wire 1 D# a $end
$var wire 1 E# b $end
$var wire 1 F# carry_in $end
$var reg 1 G# sum $end
$var reg 1 H# carry_out $end
$var reg 1 I# generate_out $end
$var reg 1 J# propagate_out $end
$var reg 1 K# a_xor_b $end
$var reg 1 L# a_and_b $end
$var reg 1 M# xor_result_and_cin $end
$upscope $end
$scope module gen_full_adders[31].fa_stage $end
$var wire 1 N# a $end
$var wire 1 O# b $end
$var wire 1 P# carry_in $end
$var reg 1 Q# sum $end
$var reg 1 R# carry_out $end
$var reg 1 S# generate_out $end
$var reg 1 T# propagate_out $end
$var reg 1 U# a_xor_b $end
$var reg 1 V# a_and_b $end
$var reg 1 W# xor_result_and_cin $end
$upscope $end
$upscope $end
$scope begin Block132_1 $end
$var reg 32 X# i [31:0] $end
$scope begin Block132_2 $end
$var reg 32 Y# single_bit [31:0] $end
$upscope $end
$upscope $end
$scope begin Block194_3 $end
$var reg 32 Z# i [31:0] $end
$scope begin Block194_4 $end
$var reg 32 Y# rand_a [31:0] $end
$var reg 32 [# rand_b [31:0] $end
$var reg 1 \# rand_carry $end
$upscope $end
$upscope $end
$scope task test_rca32 $end
$var reg 32 ]# test_a [31:0] $end
$var reg 32 ^# test_b [31:0] $end
$var reg 1 _# test_carry_in $end
$var reg 32 `# expected_sum [31:0] $end
$var reg 1 a# expected_carry_out $end
$var reg 1 b# expected_overflow $end
$var reg 33 c# full_result [32:0] $end
$upscope $end
$upscope $end
$enddefinitions $end
#0
$dumpvars
b0 !
x!!
0!"
0!#
b0 "
x"!
0""
0"#
0#
0#!
0#"
x##
b0 $
0$!
0$"
x$#
0%
0%!
0%"
0%#
0&
0&!
0&"
0&#
b0 '
0'!
x'"
0'#
b0 (
0(!
x("
0(#
b0 )
0)!
0)"
0)#
b0 *
0*!
0*"
0*#
b0 +
x+!
0+"
0+#
b0 ,
x,!
0,"
0,#
0-
0-!
0-"
x-#
b0 .
0.!
0."
x.#
0/
0/!
0/"
0/#
00
00!
00"
00#
b0 1
01!
x1"
01#
02
02!
x2"
02#
03
03!
03"
03#
04
04!
04"
04#
05
x5!
05"
05#
06
x6!
06"
06#
07
07!
07"
x7#
08
08!
08"
x8#
x9
09!
09"
09#
x:
0:!
0:"
0:#
0;
0;!
x;"
0;#
0<
0<!
x<"
0<#
0=
0=!
0="
0=#
0>
0>!
0>"
0>#
0?
x?!
0?"
0?#
0@
x@!
0@"
0@#
0A
0A!
0A"
xA#
0B
0B!
0B"
xB#
xC
0C!
0C"
0C#
xD
0D!
0D"
0D#
0E
0E!
xE"
0E#
0F
0F!
xF"
0F#
0G
0G!
0G"
0G#
0H
0H!
0H"
0H#
0I
xI!
0I"
0I#
0J
xJ!
0J"
0J#
0K
0K!
0K"
xK#
0L
0L!
0L"
xL#
xM
0M!
0M"
0M#
xN
0N!
0N"
0N#
0O
0O!
xO"
0O#
0P
0P!
xP"
0P#
0Q
0Q!
0Q"
0Q#
0R
0R!
0R"
0R#
0S
xS!
0S"
0S#
0T
xT!
0T"
0T#
0U
0U!
0U"
xU#
0V
0V!
0V"
xV#
xW
0W!
0W"
0W#
xX
0X!
0X"
b0 X#
0Y
0Y!
xY"
b0 Y#
0Z
0Z!
xZ"
b0 Z#
0[
0[!
0["
b0 [#
0\
0\!
0\"
0\#
0]
x]!
0]"
b0 ]#
0^
x^!
0^"
b0 ^#
0_
0_!
0_"
0_#
0`
0`!
0`"
b0 `#
xa
0a!
0a"
0a#
xb
0b!
0b"
0b#
0c
0c!
xc"
b0 c#
0d
0d!
xd"
0e
0e!
0e"
0f
0f!
0f"
0g
xg!
0g"
0h
xh!
0h"
0i
0i!
0i"
0j
0j!
0j"
xk
0k!
0k"
xl
0l!
0l"
0m
0m!
xm"
0n
0n!
xn"
0o
0o!
0o"
0p
0p!
0p"
0q
xq!
0q"
0r
xr!
0r"
0s
0s!
0s"
0t
0t!
0t"
xu
0u!
0u"
xv
0v!
0v"
0w
0w!
xw"
0x
0x!
xx"
0y
0y!
0y"
0z
0z!
0z"
0{
x{!
0{"
0|
x|!
0|"
0}
0}!
0}"
0~
0~!
0~"
$end
#10000
b11111111111111111111111111111111 !
1!"
1!#
b11111111111111111111111111111111 "
1""
0"#
0#!
1#"
b11111111111111111111111111111110 $
1$!
1$"
1%
1%!
1%"
0%#
1&!
0&"
1&#
1'!
1'#
1(!
1(#
1)!
0)"
1)#
b1 *
0*!
1*"
1*#
b11111111111111111111111111111111 +
1+"
1+#
b11111111111111111111111111111111 ,
1,"
0,#
0-!
1-"
b11111111111111111111111111111110 .
1.!
1."
1/
1/!
1/"
0/#
00
10!
00"
10#
b111111111111111111111111111111110 1
11!
11#
12
12!
12#
13
13!
03"
13#
04!
14"
14#
15"
15#
16
16"
06#
17
07!
17"
08
18!
18"
19!
19"
09#
1:!
0:"
1:#
1;!
1;#
1<
1<!
1<#
1=
1=!
0="
1=#
1>
0>!
1>"
1>#
1?
1?"
1?#
1@
1@"
0@#
1A
0A!
1A"
0B
1B!
1B"
1C!
1C"
0C#
1D!
0D"
1D#
0E
1E!
1E#
1F
1F!
1F#
1G
1G!
0G"
1G#
1H
0H!
1H"
1H#
1I
1I"
1I#
1J
1J"
0J#
1K
0K!
1K"
0L
1L!
1L"
1M!
1M"
0M#
1N!
0N"
1N#
0O
1O!
1O#
1P
1P!
1P#
1Q
1Q!
0Q"
1Q#
1R
0R!
1R"
1R#
1S
1S"
1S#
1T
1T"
0T#
1U
0U!
1U"
0V
1V!
1V"
1W!
1W"
0W#
1X!
0X"
0Y
1Y!
1Z
1Z!
1[
1[!
0["
1\
0\!
1\"
1]
1]"
b11111111111111111111111111111111 ]#
1^
1^"
b11111111111111111111111111111111 ^#
1_
0_!
1_"
0`
1`!
1`"
b11111111111111111111111111111110 `#
1a!
1a"
1a#
1b!
0b"
0c
1c!
b111111111111111111111111111111110 c#
1d
1d!
1e
1e!
0e"
1f
0f!
1f"
1g
1g"
1h
1h"
1i
0i!
1i"
0j
1j!
1j"
1k!
1k"
1l!
0l"
0m
1m!
1n
1n!
1o
1o!
0o"
1p
0p!
1p"
1q
1q"
1r
1r"
1s
0s!
1s"
0t
1t!
1t"
1u!
1u"
1v!
0v"
0w
1w!
1x
1x!
1y
1y!
0y"
1z
0z!
1z"
1{
1{"
1|
1|"
1}
0}!
1}"
0~
1~!
1~"
#20000
b0 !
0!"
0!#
b0 "
0""
0"#
1#
0#!
0#"
b1 $
0$!
0$"
0%
0%!
0%"
0%#
0&!
0&"
0&#
0'!
0'#
0(!
0(#
0)!
0)"
0)#
b10 *
0*!
0*"
0*#
b0 +
0+"
0+#
b0 ,
0,"
0,#
1-
0-!
0-"
b1 .
0.!
0."
0/
0/!
0/"
0/#
00
00!
00"
00#
b1 1
01!
01#
02
02!
02#
03
03!
03"
03#
14
04!
04"
04#
15
05"
05#
06
06"
06#
07
07!
07"
08
08!
08"
09!
09"
09#
0:!
0:"
0:#
0;
0;!
0;#
0<
0<!
0<#
0=
0=!
0="
0=#
0>
0>!
0>"
0>#
0?
0?"
0?#
0@
0@"
0@#
0A
0A!
0A"
0B
0B!
0B"
0C!
0C"
0C#
0D!
0D"
0D#
0E
0E!
0E#
0F
0F!
0F#
0G
0G!
0G"
0G#
0H
0H!
0H"
0H#
0I
0I"
0I#
0J
0J"
0J#
0K
0K!
0K"
0L
0L!
0L"
0M!
0M"
0M#
0N!
0N"
0N#
0O
0O!
0O#
0P
0P!
0P#
0Q
0Q!
0Q"
0Q#
0R
0R!
0R"
0R#
0S
0S"
0S#
0T
0T"
0T#
0U
0U!
0U"
0V
0V!
0V"
0W!
0W"
0W#
0X!
0X"
0Y
0Y!
0Z
0Z!
0[
0[!
0["
0\
0\!
0\"
0]
0]"
b0 ]#
0^
0^"
b0 ^#
0_
0_!
0_"
1_#
0`
0`!
0`"
b1 `#
0a!
0a"
0a#
0b!
0b"
0c
0c!
b1 c#
0d
0d!
0e
0e!
0e"
0f
0f!
0f"
0g
0g"
0h
0h"
0i
0i!
0i"
0j
0j!
0j"
0k!
0k"
0l!
0l"
0m
0m!
0n
0n!
0o
0o!
0o"
0p
0p!
0p"
0q
0q"
0r
0r"
0s
0s!
0s"
0t
0t!
0t"
0u!
0u"
0v!
0v"
0w
0w!
0x
0x!
0y
0y!
0y"
0z
0z!
0z"
0{
0{"
0|
0|"
0}
0}!
0}"
0~
0~!
0~"
#30000
b11111111111111111111111111111111 !
1!"
1!#
b11111111111111111111111111111111 "
1""
0"#
0#!
1#"
b11111111111111111111111111111111 $
1$!
1$"
1%
1%!
1%"
0%#
1&!
0&"
1&#
1'!
1'#
1(!
1(#
1)!
0)"
1)#
b11 *
0*!
1*"
1*#
b11111111111111111111111111111111 +
1+"
1+#
b11111111111111111111111111111111 ,
1,"
0,#
0-!
1-"
b11111111111111111111111111111111 .
1.!
1."
1/
1/!
1/"
0/#
00
10!
00"
10#
b111111111111111111111111111111111 1
11!
11#
12
12!
12#
13
13!
03"
13#
04!
14"
14#
15"
15#
16
16"
06#
17
07!
17"
08
18!
18"
19!
19"
09#
1:!
0:"
1:#
1;!
1;#
1<
1<!
1<#
1=
1=!
0="
1=#
1>
0>!
1>"
1>#
1?
1?"
1?#
1@
1@"
0@#
1A
0A!
1A"
0B
1B!
1B"
1C!
1C"
0C#
1D!
0D"
1D#
0E
1E!
1E#
1F
1F!
1F#
1G
1G!
0G"
1G#
1H
0H!
1H"
1H#
1I
1I"
1I#
1J
1J"
0J#
1K
0K!
1K"
0L
1L!
1L"
1M!
1M"
0M#
1N!
0N"
1N#
0O
1O!
1O#
1P
1P!
1P#
1Q
1Q!
0Q"
1Q#
1R
0R!
1R"
1R#
1S
1S"
1S#
1T
1T"
0T#
1U
0U!
1U"
0V
1V!
1V"
1W!
1W"
0W#
1X!
0X"
0Y
1Y!
1Z
1Z!
1[
1[!
0["
1\
0\!
1\"
1]
1]"
b11111111111111111111111111111111 ]#
1^
1^"
b11111111111111111111111111111111 ^#
1_
0_!
1_"
0`
1`!
1`"
b11111111111111111111111111111111 `#
1a!
1a"
1a#
1b!
0b"
0c
1c!
b111111111111111111111111111111111 c#
1d
1d!
1e
1e!
0e"
1f
0f!
1f"
1g
1g"
1h
1h"
1i
0i!
1i"
0j
1j!
1j"
1k!
1k"
1l!
0l"
0m
1m!
1n
1n!
1o
1o!
0o"
1p
0p!
1p"
1q
1q"
1r
1r"
1s
0s!
1s"
0t
1t!
1t"
1u!
1u"
1v!
0v"
0w
1w!
1x
1x!
1y
1y!
0y"
1z
0z!
1z"
1{
1{"
1|
1|"
1}
0}!
1}"
0~
1~!
1~"
#40000
b1 !
0!"
0!#
b1 "
0""
0"#
0#
0#!
0#"
b10 $
0$!
0$"
0%
0%!
0%"
0%#
0&!
0&"
0&#
0'!
0'#
0(!
0(#
0)!
0)"
0)#
b100 *
0*!
0*"
0*#
b1 +
0+"
0+#
b1 ,
0,"
0,#
0-
0-!
0-"
b10 .
0.!
0."
0/
0/!
0/"
0/#
00
00!
00"
00#
b10 1
01!
01#
12
02!
02#
13
03!
03"
03#
04
04!
04"
04#
05
05"
05#
06"
06#
07!
07"
08!
08"
09!
09"
09#
0:!
0:"
0:#
0;
0;!
0;#
0<
0<!
0<#
0=
0=!
0="
0=#
0>!
0>"
0>#
0?"
0?#
0@
0@"
0@#
0A
0A!
0A"
0B
0B!
0B"
0C!
0C"
0C#
0D!
0D"
0D#
0E!
0E#
0F
0F!
0F#
0G
0G!
0G"
0G#
0H
0H!
0H"
0H#
0I
0I"
0I#
0J
0J"
0J#
0K
0K!
0K"
0L
0L!
0L"
0M!
0M"
0M#
0N!
0N"
0N#
0O
0O!
0O#
0P
0P!
0P#
0Q
0Q!
0Q"
0Q#
0R
0R!
0R"
0R#
0S
0S"
0S#
0T
0T"
0T#
0U
0U!
0U"
0V
0V!
0V"
0W!
0W"
0W#
0X!
0X"
0Y
0Y!
0Z
0Z!
0[
0[!
0["
0\
0\!
0\"
0]
0]"
b1 ]#
0^
0^"
b1 ^#
0_
0_!
0_"
0_#
0`
0`!
0`"
b10 `#
0a!
0a"
0a#
0b!
0b"
0c
0c!
b10 c#
0d
0d!
0e
0e!
0e"
0f
0f!
0f"
0g
0g"
0h
0h"
0i
0i!
0i"
0j
0j!
0j"
0k!
0k"
0l!
0l"
0m
0m!
0n
0n!
0o
0o!
0o"
0p
0p!
0p"
0q
0q"
0r
0r"
0s
0s!
0s"
0t
0t!
0t"
0u!
0u"
0v!
0v"
0w
0w!
0x
0x!
0y
0y!
0y"
0z
0z!
0z"
0{
0{"
0|
0|"
0}
0}!
0}"
0~
0~!
0~"
#50000
b10 !
0!"
b10 "
b100 $
0$!
0%!
0&#
0'#
b101 *
0*"
b10 +
0+"
b10 ,
b100 .
0.!
0/!
00#
b100 1
01#
02
03
04"
05"
06
07
08
08!
09!
0:#
0;#
1<
1=
0>
0>"
0?
0?"
1@
1A
0B
0B!
0C!
0D#
0E
0E#
0F
0G
1H
0H"
1I
0I"
0L!
0M!
0N#
0O
0O#
0P
0Q
0R"
0S"
0V!
0W!
b1 X#
0Z
0[
0\"
0]"
b10 ]#
b10 ^#
0`!
b100 `#
0a!
b100 c#
0d
0e
0f"
0g"
0j!
0k!
0n
0o
0p"
0q"
0t!
0u!
0x
0y
0z"
0{"
0~!
#60000
b100 !
0!"
b100 "
b1000 $
0$!
0%!
0&#
0'#
b110 *
0*"
b100 +
0+"
b100 ,
b1000 .
0.!
0/!
00#
b1000 1
01#
02
03
04"
05"
08!
09!
0:#
0;#
0<
0=
0>"
0?"
0@
0A
0B
0B!
0C!
0D#
0E#
1F
1G
0H
0H"
0I
0I"
1J
1K
0L
0L!
0M!
0N#
0O
0O#
0P
0Q
1R
0R"
1S
0S"
0V!
0W!
b10 X#
0Y
0Z
0[
0\"
0]"
b100 ]#
b100 ^#
0`!
b1000 `#
0a!
b1000 c#
0d
0e
0f"
0g"
0j!
0k!
0n
0o
0p"
0q"
0t!
0u!
0x
0y
0z"
0{"
0~!
#70000
b1000 !
0!"
b1000 "
b10000 $
0$!
0%!
0&#
0'#
b111 *
0*"
b1000 +
0+"
b1000 ,
b10000 .
0.!
0/!
00#
b10000 1
01#
02
03
04"
05"
08!
09!
0:#
0;#
0<
0=
0>"
0?"
0B!
0C!
0D#
0E#
0F
0G
0H"
0I"
0J
0K
0L
0L!
0M!
0N#
0O#
1P
1Q
0R
0R"
0S
0S"
1T
1U
0V
0V!
0W!
b11 X#
0Y
0Z
0[
1\
0\"
1]
0]"
b1000 ]#
b1000 ^#
0`!
b10000 `#
0a!
0c
b10000 c#
0d
0e
0f"
0g"
0j!
0k!
0n
0o
0p"
0q"
0t!
0u!
0x
0y
0z"
0{"
0~!
#80000
b10000 !
0!"
b10000 "
b100000 $
0$!
0%!
0&#
0'#
b1000 *
0*"
b10000 +
0+"
b10000 ,
b100000 .
0.!
0/!
00#
b100000 1
01#
02
03
04"
05"
08!
09!
0:#
0;#
0<
0=
0>"
0?"
0B!
0C!
0D#
0E#
0F
0G
0H"
0I"
0L!
0M!
0N#
0O#
0P
0Q
0R"
0S"
0T
0U
0V
0V!
0W!
b100 X#
1Z
1[
0\
0\"
0]
0]"
b10000 ]#
1^
b10000 ^#
1_
0`
0`!
b100000 `#
0a!
0c
b100000 c#
0d
0e
1f
0f"
1g
0g"
0j!
0k!
0m
0n
0o
0p"
0q"
0t!
0u!
0x
0y
0z"
0{"
0~!
#90000
b100000 !
0!"
b100000 "
b1000000 $
0$!
0%!
0&#
0'#
b1001 *
0*"
b100000 +
0+"
b100000 ,
b1000000 .
0.!
0/!
00#
b1000000 1
01#
02
03
04"
05"
08!
09!
0:#
0;#
0<
0=
0>"
0?"
0B!
0C!
0D#
0E#
0F
0G
0H"
0I"
0L!
0M!
0N#
0O#
0P
0Q
0R"
0S"
0V!
0W!
b101 X#
0Z
0[
0\"
0]"
b100000 ]#
0^
b100000 ^#
0_
0`
0`!
b1000000 `#
0a!
b1000000 c#
1d
1e
0f
0f"
0g
0g"
1h
1i
0j
0j!
0k!
0m
0n
0o
1p
0p"
1q
0q"
0t!
0u!
0w
0x
0y
0z"
0{"
0~!
#100000
b1000000 !
0!"
b1000000 "
0#!
b10000000 $
0$!
0%!
0&#
0'#
b1010 *
0*"
b1000000 +
0+"
b1000000 ,
b10000000 .
0.!
0/!
00#
b10000000 1
01#
02
03
04"
05"
08!
09!
0:#
0;#
0<
0=
0>"
0?"
0B!
0C!
0D#
0E#
0F
0G
0H"
0I"
0L!
0M!
0N#
0O#
0P
0Q
0R"
0S"
0V!
0W!
b110 X#
0Z
0[
0\"
0]"
b1000000 ]#
b1000000 ^#
0`!
b10000000 `#
0a!
b10000000 c#
0d
0e
0f"
0g"
0h
0i
0j
0j!
0k!
1n
1o
0p
0p"
0q
0q"
1r
1s
0t
0t!
0u!
0w
0x
0y
1z
0z"
1{
0{"
0~!
#110000
b10000000 !
0!"
b10000000 "
0#!
b100000000 $
0$!
0%!
1&!
0&#
1'!
0'#
b1011 *
0*"
b10000000 +
0+"
b10000000 ,
0-!
b100000000 .
0.!
0/!
00#
b100000000 1
01#
02
03
04"
05"
08!
09!
0:#
0;#
0<
0=
0>"
0?"
0B!
0C!
0D#
0E#
0F
0G
0H"
0I"
0L!
0M!
0N#
0O#
0P
0Q
0R"
0S"
0V!
0W!
b111 X#
0Z
0[
0\"
0]"
b10000000 ]#
b10000000 ^#
0`!
b100000000 `#
0a!
b100000000 c#
0d
0e
0f"
0g"
0j!
0k!
0n
0o
0p"
0q"
0r
0s
0t
0t!
0u!
1x
1y
0z
0z"
0{
0{"
1|
1}
0~
0~!
