lab4_updated/lab4_server/cpu_rtype_sequential_tb.vcd
$date
   Fri Nov 14 01:34:51 2025
$end
$version
  2022.2
$end
$timescale
  1ps
$end
$scope module cpu_rtype_sequential_tb $end
$var reg 1 ! clk $end
$var reg 1 " clk_en $end
$var reg 1 # rst $end
$var reg 32 $ r_data [31:0] $end
$var reg 1 % wr_en $end
$var reg 32 & mem_addr [31:0] $end
$var reg 32 ' w_data [31:0] $end
$var reg 1 ( tb_wr_en $end
$var reg 32 ) tb_mem_addr [31:0] $end
$var reg 32 * tb_w_data [31:0] $end
$var reg 32 + test_count [31:0] $end
$var reg 32 , pass_count [31:0] $end
$var reg 32 - fail_count [31:0] $end
$var reg 32 . cycle_count [31:0] $end
$var reg 32 / instruction_executed [31:0] $end
$var reg 5 0 dbg_reg_file_r0_addr [4:0] $end
$var reg 5 1 dbg_reg_file_r1_addr [4:0] $end
$var reg 5 2 dbg_reg_file_w_addr [4:0] $end
$var reg 32 3 dbg_reg_file_r0_data [31:0] $end
$var reg 32 4 dbg_reg_file_r1_data [31:0] $end
$var reg 32 5 dbg_reg_file_w_data [31:0] $end
$var reg 32 6 dbg_Register_File_A [31:0] $end
$var reg 32 7 dbg_Register_File_B [31:0] $end
$var reg 6 8 dbg_instruction_reg_rs [5:0] $end
$var reg 6 9 dbg_instruction_reg_rt [5:0] $end
$var reg 1 : dbg_RegWrite $end
$var reg 32 ; dbg_PC [31:0] $end
$var reg 32 < reg_write_count [31:0] $end
$scope module cpu_inst $end
$var wire 1 = clk $end
$var wire 1 > clk_en $end
$var wire 1 ? rst $end
$var reg 32 $ r_data [31:0] $end
$var reg 1 % wr_en $end
$var reg 32 & mem_addr [31:0] $end
$var reg 32 ' w_data [31:0] $end
$var reg 5 0 dbg_reg_file_r0_addr [4:0] $end
$var reg 5 1 dbg_reg_file_r1_addr [4:0] $end
$var reg 32 3 dbg_reg_file_r0_data [31:0] $end
$var reg 32 4 dbg_reg_file_r1_data [31:0] $end
$var reg 32 6 dbg_Register_File_A [31:0] $end
$var reg 32 7 dbg_Register_File_B [31:0] $end
$var reg 6 8 dbg_instruction_reg_rs [5:0] $end
$var reg 6 9 dbg_instruction_reg_rt [5:0] $end
$var reg 5 2 dbg_reg_file_w_addr [4:0] $end
$var reg 1 : dbg_RegWrite $end
$var reg 32 5 dbg_reg_file_w_data [31:0] $end
$var reg 32 ; dbg_PC [31:0] $end
$var reg 32 @ mem_r_data [31:0] $end
$var reg 32 A PC [31:0] $end
$var reg 32 B PC_prime [31:0] $end
$var reg 1 C PCWrite $end
$var reg 1 D branch_and_zero $end
$var reg 1 E PCEn $end
$var reg 1 F IorD $end
$var reg 1 G MemWrite $end
$var reg 32 H addr [31:0] $end
$var reg 32 I alu_out_for_addr [31:0] $end
$var reg 32 J instruction_reg [31:0] $end
$var reg 1 K IRWrite $end
$var reg 32 L data_reg [31:0] $end
$var reg 1 M data_reg_en $end
$var reg 1 N MemToReg $end
$var reg 32 O reg_file_w_data [31:0] $end
$var reg 1 P Branch $end
$var reg 1 Q PCSrc $end
$var reg 4 R ALUControl [3:0] $end
$var reg 2 S ALUSrcB [1:0] $end
$var reg 1 T ALUSrcA $end
$var reg 1 U RegWrite $end
$var reg 1 V RegDst $end
$var reg 32 W alu_out_for_reg [31:0] $end
$var reg 5 X reg_file_r0_addr [4:0] $end
$var reg 5 Y reg_file_r1_addr [4:0] $end
$var reg 5 Z reg_file_w_addr [4:0] $end
$var reg 32 [ reg_file_r0_data [31:0] $end
$var reg 32 \ reg_file_r1_data [31:0] $end
$var reg 32 ] Register_File_A [31:0] $end
$var reg 32 ^ Register_File_B [31:0] $end
$var reg 16 _ imm_16 [15:0] $end
$var reg 32 ` SignImm [31:0] $end
$var reg 32 a shifted_imm [31:0] $end
$var reg 32 b alu_src_b_mux_in0 [31:0] $end
$var reg 32 c alu_src_b_mux_in1 [31:0] $end
$var reg 32 d alu_src_b_mux_in2 [31:0] $end
$var reg 32 e alu_src_b_mux_in3 [31:0] $end
$var reg 32 f alu_src_b [31:0] $end
$var reg 5 g shamt [4:0] $end
$var reg 32 h alu_src_a_mux_in0 [31:0] $end
$var reg 32 i alu_src_a_mux_in1 [31:0] $end
$var reg 32 j alu_src_a [31:0] $end
$var reg 1 k alu_zero $end
$var reg 32 l ALUResult [31:0] $end
$var reg 32 m ALUOut [31:0] $end
$var reg 6 n opcode [5:0] $end
$var reg 6 o funct [5:0] $end
$var reg 1 p is_shift_instr $end
$scope module PC_Reg $end
$var wire 1 = clk $end
$var wire 1 ? rst $end
$var wire 1 q en $end
$var wire 32 r d [31:0] $end
$var reg 32 A q [31:0] $end
$upscope $end
$scope module main_memory $end
$var wire 1 = clk $end
$var wire 1 > clk_en $end
$var wire 1 % wr_en $end
$var wire 32 s addr [31:0] $end
$var wire 32 ' w_data [31:0] $end
$var reg 32 @ r_data [31:0] $end
$var reg 32 t data_reg [31:0] $end
$var reg 1 u i $end
$var reg 1 v wr_i_en $end
$var reg 1 w wr_d_en $end
$var reg 9 x phy_i_addr [8:0] $end
$var reg 10 y phy_d_addr [9:0] $end
$upscope $end
$scope module instruction_reg_inst $end
$var wire 1 = clk $end
$var wire 1 ? rst $end
$var wire 1 z en $end
$var wire 32 { d [31:0] $end
$var reg 32 J q [31:0] $end
$upscope $end
$scope module data_reg_inst $end
$var wire 1 = clk $end
$var wire 1 ? rst $end
$var wire 1 | en $end
$var wire 32 } d [31:0] $end
$var reg 32 L q [31:0] $end
$upscope $end
$scope module reg_file_inst $end
$var wire 1 = clk $end
$var wire 1 ~ wr_en $end
$var wire 5 !! w_addr [4:0] $end
$var wire 5 "! r0_addr [4:0] $end
$var wire 5 #! r1_addr [4:0] $end
$var wire 32 $! w_data [31:0] $end
$var reg 32 [ r0_data [31:0] $end
$var reg 32 \ r1_data [31:0] $end
$upscope $end
$scope module Register_File_A_inst $end
$var wire 1 = clk $end
$var wire 1 ? rst $end
$var wire 32 %! d [31:0] $end
$var reg 32 ] q [31:0] $end
$upscope $end
$scope module Register_File_B_inst $end
$var wire 1 = clk $end
$var wire 1 ? rst $end
$var wire 32 &! d [31:0] $end
$var reg 32 ^ q [31:0] $end
$upscope $end
$scope module sign_extend_inst $end
$var wire 16 '! imm_16 [15:0] $end
$var reg 32 ` imm_32 [31:0] $end
$upscope $end
$scope module barrel_shifter_inst $end
$var wire 32 (! data_in [31:0] $end
$var reg 32 a data_out [31:0] $end
$upscope $end
$scope module SrcB_select_mux $end
$var wire 2 )! sel [1:0] $end
$var wire 32 *! in0 [31:0] $end
$var wire 32 +! in1 [31:0] $end
$var wire 32 ,! in2 [31:0] $end
$var wire 32 -! in3 [31:0] $end
$var reg 32 f out [31:0] $end
$upscope $end
$scope module SrcA_select_mux $end
$var wire 1 .! sel $end
$var wire 32 /! in0 [31:0] $end
$var wire 32 0! in1 [31:0] $end
$var reg 32 j out [31:0] $end
$upscope $end
$scope module alu_inst $end
$var wire 32 1! x [31:0] $end
$var wire 32 2! y [31:0] $end
$var wire 4 3! op [3:0] $end
$var reg 32 l z [31:0] $end
$var reg 1 k zero $end
$upscope $end
$scope module ALU_Reg $end
$var wire 1 = clk $end
$var wire 1 ? rst $end
$var wire 32 4! d [31:0] $end
$var reg 32 m q [31:0] $end
$upscope $end
$scope module PCSrc_Select $end
$var wire 1 5! sel $end
$var wire 32 6! in0 [31:0] $end
$var wire 32 7! in1 [31:0] $end
$var reg 32 B out [31:0] $end
$upscope $end
$scope module ctrl_unit $end
$var wire 1 = clk $end
$var wire 1 ? rst $end
$var wire 6 8! opcode [5:0] $end
$var wire 6 9! funct [5:0] $end
$var reg 1 C PCWrite $end
$var reg 1 P Branch $end
$var reg 1 Q PCSrc $end
$var reg 4 R ALUControl [3:0] $end
$var reg 2 S ALUSrcB [1:0] $end
$var reg 1 T ALUSrcA $end
$var reg 1 U RegWrite $end
$var reg 1 F IorD $end
$var reg 1 G MemWrite $end
$var reg 1 K IRWrite $end
$var reg 1 N MemToReg $end
$var reg 1 V RegDst $end
$var reg 32 :! current_state $end
$var reg 32 ;! next_state $end
$scope function funct_to_alu_op $end
$var reg 4 <! funct_to_alu_op [3:0] $end
$var reg 6 =! funct [5:0] $end
$upscope $end
$upscope $end
$upscope $end
$scope begin Block424_21 $end
$var reg 32 >! timeout [31:0] $end
$upscope $end
$scope begin Block469_22 $end
$var reg 32 ?! i [31:0] $end
$upscope $end
$scope begin Block477_23 $end
$var reg 32 >! found_additional [31:0] $end
$scope begin Block479_24 $end
$var reg 32 @! i [31:0] $end
$upscope $end
$upscope $end
$scope task wait_cycles $end
$var reg 32 A! n [31:0] $end
$upscope $end
$scope task write_instruction_memory $end
$var reg 32 B! addr [31:0] $end
$var reg 32 C! instr [31:0] $end
$var reg 9 D! phy_i_addr [8:0] $end
$var reg 10 E! phy_d_addr [9:0] $end
$upscope $end
$scope task verify_instruction_memory $end
$var reg 32 F! addr [31:0] $end
$var reg 32 G! expected [31:0] $end
$var reg 32 H! actual [31:0] $end
$var reg 9 I! phy_i_addr [8:0] $end
$var reg 10 J! phy_d_addr [9:0] $end
$upscope $end
$scope task check_register $end
$var reg 5 K! reg_num [4:0] $end
$var reg 32 L! expected [31:0] $end
$var reg 32 M! test_name $end
$var reg 32 N! actual [31:0] $end
$upscope $end
$scope task verify_rtype_result $end
$var reg 5 O! rd [4:0] $end
$var reg 32 P! expected [31:0] $end
$var reg 32 Q! instr_desc $end
$var reg 32 R! actual [31:0] $end
$upscope $end
$upscope $end
$enddefinitions $end
#0
$dumpvars
0!
b0 !!
1"
b0 "!
1#
b0 #!
b100000000000100000000000000101 $
b0 $!
0%
b0 %!
b10000000000000000000000 &
b0 &!
b0 '
b0 '!
x(
b0 (!
bx )
b1 )!
bx *
b0 *!
b0 +
b100 +!
b0 ,
b0 ,!
b0 -
b0 -!
b0 .
0.!
b0 /
b10000000000000000000000 /!
b0 0
b0 0!
b0 1
b10000000000000000000000 1!
b0 2
b100 2!
b0 3
b101 3!
b0 4
b10000000000000000000100 4!
b0 5
05!
b0 6
b10000000000000000000100 6!
b0 7
b0 7!
b0 8
b0 8!
b0 9
b0 9!
0:
b0 :!
b10000000000000000000000 ;
b1 ;!
b0 <
bx <!
0=
bx =!
1>
b0 >!
1?
b0 ?!
b100000000000100000000000000101 @
b0 @!
b10000000000000000000000 A
b100 A!
b10000000000000000000100 B
bx B!
1C
bx C!
0D
bx D!
1E
bx E!
0F
bx F!
0G
bx G!
b10000000000000000000000 H
bx H!
b0 I
bx I!
b0 J
bx J!
1K
b0 K!
b0 L
b0 L!
0M
b0 M!
0N
b0 N!
b0 O
bx O!
0P
bx P!
0Q
b0 Q!
b101 R
bx R!
b1 S
0T
0U
0V
b0 W
b0 X
b0 Y
b0 Z
b0 [
b0 \
b0 ]
b0 ^
b0 _
b0 `
b0 a
b0 b
b100 c
b0 d
b0 e
b100 f
b0 g
b10000000000000000000000 h
b0 i
b10000000000000000000000 j
0k
b10000000000000000000100 l
b0 m
b0 n
b0 o
1p
1q
b10000000000000000000100 r
b10000000000000000000000 s
bx t
1u
0v
0w
b0 x
b0 y
1z
b100000000000100000000000000101 {
0|
b100000000000100000000000000101 }
0~
$end
#5000
1!
b1 .
b0 :!
1=
b0 [
b0 \
#10000
0!
0=
#15000
1!
b10 .
b0 :!
1=
#20000
0!
0=
#25000
1!
b11 .
b0 :!
1=
#30000
0!
0=
#35000
1!
b100 .
b0 :!
1=
#37000
0#
0?
b10 A!
#40000
0!
0=
#45000
1!
b10 !!
b10 #!
b100000000000110000000000000011 $
b10000000000000000000100 $!
b10000000000000000000100 &
bx &!
b101 '!
b101 (!
b11 )!
b101 ,!
b10100 -!
b101 .
b10000000000000000000100 /!
b10 1
b10000000000000000000100 1!
b10 2
b10100 2!
bx 4
b10000000000000000011000 4!
b10000000000000000000100 5
b10000000000000000011000 6!
b10000000000000000000100 7!
b1000 8!
b10 9
b101 9!
b1 :!
b10000000000000000000100 ;
b100 ;!
1=
b100000000000110000000000000011 @
b10000000000000000000100 A
b10000000000000000011000 B
0C
0E
0F
0G
b10000000000000000000100 H
b10000000000000000000100 I
b100000000000100000000000000101 J
0K
0N
b10000000000000000000100 O
0P
0Q
b101 R
b11 S
0T
0U
0V
b10000000000000000000100 W
b10 Y
b10 Z
bx \
b101 _
b101 `
b10100 a
b0 b
b101 d
b10100 e
b10100 f
b10000000000000000000100 h
b0 i
b10000000000000000000100 j
0k
b10000000000000000011000 l
b10000000000000000000100 m
b1000 n
b101 o
0p
0q
b10000000000000000011000 r
b10000000000000000000100 s
1u
b1 x
b1 y
0z
b100000000000110000000000000011 {
b100000000000110000000000000011 }
#50000
0!
0=
#55000
1!
b10000000000000000011000 $!
bx '
b10 )!
bx *!
b110 .
1.!
b0 1!
b101 2!
b101 4!
b10000000000000000011000 5
b101 6!
bx 7
b10000000000000000011000 7!
b100 :!
b101 ;!
1=
b101 B
0C
0F
0G
b10000000000000000000100 H
b10000000000000000011000 I
0K
0N
b10000000000000000011000 O
0P
0Q
b101 R
b10 S
1T
0U
0V
b10000000000000000011000 W
bx ^
bx b
b101 f
b0 i
b0 j
0k
b101 l
b10000000000000000011000 m
b101 r
#57000
b1 +
b1 ,
b100000000000110000000000000011 @
b11111010 A!
b10000000000000011000000 B!
b1011011000110000000100111 C!
b110000 D!
b110000 E!
b10000000000000011000000 F!
b1011011000110000000100111 G!
b1011011000110000000100111 H!
b110000 I!
b110000 J!
#60000
0!
0=
#65000
1!
b101 $!
b0 )!
b111 .
0.!
b10000000000000000000100 1!
bx 2!
bx 4!
b101 5
bx 6!
b101 7!
1:
b101 :!
b0 ;!
1=
bx B
0C
0D
0F
0G
b10000000000000000000100 H
b101 I
0K
0N
b101 O
0P
0Q
b101 R
b0 S
0T
1U
0V
b101 W
bx f
b10000000000000000000100 j
xk
bx l
b101 m
bx r
1~
#70000
0!
0=
#75000
1!
bx $!
b101 &!
b1 )!
b1000 .
b100 2!
b101 4
b10000000000000000001000 4!
bx 5
b10000000000000000001000 6!
bx 7!
0:
b0 :!
b1 ;!
1=
b10000000000000000001000 B
1C
0D
1E
0F
0G
b10000000000000000000100 H
bx I
1K
0N
bx O
0P
0Q
b101 R
b1 S
0T
0U
0V
bx W
b0 [
b101 \
b100 f
0k
b10000000000000000001000 l
bx m
1q
b10000000000000000001000 r
1z
0~
#80000
0!
0=
#85000
1!
b11 !!
b11 #!
b100000000001000000000000001010 $
b10000000000000000001000 $!
b10000000000000000001000 &
bx &!
b101 '
b11 '!
b11 (!
b11 )!
b101 *!
b11 ,!
b1100 -!
b1001 .
b10000000000000000001000 /!
b11 1
b10000000000000000001000 1!
b11 2
b1100 2!
bx 4
b10000000000000000010100 4!
b10000000000000000001000 5
b10000000000000000010100 6!
b101 7
b10000000000000000001000 7!
b11 9
b11 9!
b1 :!
b10000000000000000001000 ;
b100 ;!
1=
b100000000001000000000000001010 @
b10000000000000000001000 A
b10000000000000000010100 B
0C
0E
0F
0G
b10000000000000000001000 H
b10000000000000000001000 I
b100000000000110000000000000011 J
0K
0N
b10000000000000000001000 O
0P
0Q
b101 R
b11 S
0T
0U
0V
b10000000000000000001000 W
b11 Y
b11 Z
bx \
b101 ^
b11 _
b11 `
b1100 a
b101 b
b11 d
b1100 e
b1100 f
b10000000000000000001000 h
b0 i
b10000000000000000001000 j
0k
b10000000000000000010100 l
b10000000000000000001000 m
b11 o
0p
0q
b10000000000000000010100 r
b10000000000000000001000 s
1u
b10 x
b10 y
0z
b100000000001000000000000001010 {
b100000000001000000000000001010 }
#90000
0!
0=
#95000
1!
b10000000000000000010100 $!
bx '
b10 )!
bx *!
b1010 .
1.!
b0 1!
b11 2!
b11 4!
b10000000000000000010100 5
b11 6!
bx 7
b10000000000000000010100 7!
b100 :!
b101 ;!
1=
b11 B
0C
0F
0G
b10000000000000000001000 H
b10000000000000000010100 I
0K
0N
b10000000000000000010100 O
0P
0Q
b101 R
b10 S
1T
0U
0V
b10000000000000000010100 W
bx ^
bx b
b11 f
b0 i
b0 j
0k
b11 l
b10000000000000000010100 m
b11 r
#100000
0!
0=
#105000
1!
b11 $!
b0 )!
b1011 .
0.!
b10000000000000000001000 1!
bx 2!
bx 4!
b11 5
bx 6!
b11 7!
1:
b101 :!
b0 ;!
1=
bx B
0C
0D
0F
0G
b10000000000000000001000 H
b11 I
0K
0N
b11 O
0P
0Q
b101 R
b0 S
0T
1U
0V
b11 W
bx f
b10000000000000000001000 j
xk
bx l
b11 m
bx r
1~
#110000
0!
0=
#115000
1!
bx $!
b11 &!
b1 )!
b1100 .
b100 2!
b11 4
b10000000000000000001100 4!
bx 5
b10000000000000000001100 6!
bx 7!
0:
b0 :!
b1 ;!
b1 <
1=
b10000000000000000001100 B
1C
0D
1E
0F
0G
b10000000000000000001000 H
bx I
1K
0N
bx O
0P
0Q
b101 R
b1 S
0T
0U
0V
bx W
b0 [
b11 \
b100 f
0k
b10000000000000000001100 l
bx m
1q
b10000000000000000001100 r
1z
0~
#120000
0!
0=
#125000
1!
b100 !!
b100 #!
b100000000001011111111111111111 $
b10000000000000000001100 $!
b10000000000000000001100 &
bx &!
b11 '
b1010 '!
b1010 (!
b11 )!
b11 *!
b1010 ,!
b101000 -!
b1101 .
b10000000000000000001100 /!
b100 1
b10000000000000000001100 1!
b100 2
b101000 2!
bx 4
b10000000000000000110100 4!
b10000000000000000001100 5
b10000000000000000110100 6!
b11 7
b10000000000000000001100 7!
b100 9
b1010 9!
b1 :!
b10000000000000000001100 ;
b100 ;!
1=
b100000000001011111111111111111 @
b10000000000000000001100 A
b10000000000000000110100 B
0C
0E
0F
0G
b10000000000000000001100 H
b10000000000000000001100 I
b100000000001000000000000001010 J
0K
0N
b10000000000000000001100 O
0P
0Q
b101 R
b11 S
0T
0U
0V
b10000000000000000001100 W
b100 Y
b100 Z
bx \
b11 ^
b1010 _
b1010 `
b101000 a
b11 b
b1010 d
b101000 e
b101000 f
b10000000000000000001100 h
b0 i
b10000000000000000001100 j
0k
b10000000000000000110100 l
b10000000000000000001100 m
b1010 o
0p
0q
b10000000000000000110100 r
b10000000000000000001100 s
1u
b11 x
b11 y
0z
b100000000001011111111111111111 {
b100000000001011111111111111111 }
#130000
0!
0=
#135000
1!
b10000000000000000110100 $!
bx '
b10 )!
bx *!
b1110 .
1.!
b0 1!
b1010 2!
b1010 4!
b10000000000000000110100 5
b1010 6!
bx 7
b10000000000000000110100 7!
b100 :!
b101 ;!
1=
b1010 B
0C
0F
0G
b10000000000000000001100 H
b10000000000000000110100 I
0K
0N
b10000000000000000110100 O
0P
0Q
b101 R
b10 S
1T
0U
0V
b10000000000000000110100 W
bx ^
bx b
b1010 f
b0 i
b0 j
0k
b1010 l
b10000000000000000110100 m
b1010 r
#140000
0!
0=
#145000
1!
b1010 $!
b0 )!
b1111 .
0.!
b10000000000000000001100 1!
bx 2!
bx 4!
b1010 5
bx 6!
b1010 7!
1:
b101 :!
b0 ;!
1=
bx B
0C
0D
0F
0G
b10000000000000000001100 H
b1010 I
0K
0N
b1010 O
0P
0Q
b101 R
b0 S
0T
1U
0V
b1010 W
bx f
b10000000000000000001100 j
xk
bx l
b1010 m
bx r
1~
#150000
0!
0=
#155000
1!
bx $!
b1010 &!
b1 )!
b10000 .
b100 2!
b1010 4
b10000000000000000010000 4!
bx 5
b10000000000000000010000 6!
bx 7!
0:
b0 :!
b1 ;!
b10 <
1=
b10000000000000000010000 B
1C
0D
1E
0F
0G
b10000000000000000001100 H
bx I
1K
0N
bx O
0P
0Q
b101 R
b1 S
0T
0U
0V
bx W
b0 [
b1010 \
b100 f
0k
b10000000000000000010000 l
bx m
1q
b10000000000000000010000 r
1z
0~
#160000
0!
0=
#165000
1!
b101 !!
b101 #!
b10000100000100000100000 $
b10000000000000000010000 $!
b10000000000000000010000 &
bx &!
b1010 '
b1111111111111111 '!
b11111111111111111111111111111111 (!
b11 )!
b1010 *!
b11111111111111111111111111111111 ,!
b11111111111111111111111111111100 -!
b10001 .
b10000000000000000010000 /!
b101 1
b10000000000000000010000 1!
b101 2
b11111111111111111111111111111100 2!
bx 4
b10000000000000000001100 4!
b10000000000000000010000 5
b10000000000000000001100 6!
b1010 7
b10000000000000000010000 7!
b101 9
b111111 9!
b1 :!
b10000000000000000010000 ;
b100 ;!
1=
b10000100000100000100000 @
b10000000000000000010000 A
b10000000000000000001100 B
0C
0E
0F
0G
b10000000000000000010000 H
b10000000000000000010000 I
b100000000001011111111111111111 J
0K
0N
b10000000000000000010000 O
0P
0Q
b101 R
b11 S
0T
0U
0V
b10000000000000000010000 W
b101 Y
b101 Z
bx \
b1010 ^
b1111111111111111 _
b11111111111111111111111111111111 `
b11111111111111111111111111111100 a
b1010 b
b11111111111111111111111111111111 d
b11111111111111111111111111111100 e
b11111111111111111111111111111100 f
b11111 g
b10000000000000000010000 h
b0 i
b10000000000000000010000 j
0k
b10000000000000000001100 l
b10000000000000000010000 m
b111111 o
0p
0q
b10000000000000000001100 r
b10000000000000000010000 s
1u
b100 x
b100 y
0z
b10000100000100000100000 {
b10000100000100000100000 }
#170000
0!
0=
#175000
1!
b10000000000000000001100 $!
bx '
b10 )!
bx *!
b10010 .
1.!
b0 1!
b11111111111111111111111111111111 2!
b11111111111111111111111111111111 4!
b10000000000000000001100 5
b11111111111111111111111111111111 6!
bx 7
b10000000000000000001100 7!
b100 :!
b101 ;!
1=
b11111111111111111111111111111111 B
0C
0F
0G
b10000000000000000010000 H
b10000000000000000001100 I
0K
0N
b10000000000000000001100 O
0P
0Q
b101 R
b10 S
1T
0U
0V
b10000000000000000001100 W
bx ^
bx b
b11111111111111111111111111111111 f
b0 i
b0 j
0k
b11111111111111111111111111111111 l
b10000000000000000001100 m
b11111111111111111111111111111111 r
#180000
0!
0=
#185000
1!
b11111111111111111111111111111111 $!
b0 )!
b10011 .
0.!
b10000000000000000010000 1!
bx 2!
bx 4!
b11111111111111111111111111111111 5
bx 6!
b11111111111111111111111111111111 7!
1:
b101 :!
b0 ;!
1=
bx B
0C
0D
0F
0G
b10000000000000000010000 H
b11111111111111111111111111111111 I
0K
0N
b11111111111111111111111111111111 O
0P
0Q
b101 R
b0 S
0T
1U
0V
b11111111111111111111111111111111 W
bx f
b10000000000000000010000 j
xk
bx l
b11111111111111111111111111111111 m
bx r
1~
#190000
0!
0=
#195000
1!
bx $!
b11111111111111111111111111111111 &!
b1 )!
b10100 .
b100 2!
b11111111111111111111111111111111 4
b10000000000000000010100 4!
bx 5
b10000000000000000010100 6!
bx 7!
0:
b0 :!
b1 ;!
b11 <
1=
b10000000000000000010100 B
1C
0D
1E
0F
0G
b10000000000000000010000 H
bx I
1K
0N
bx O
0P
0Q
b101 R
b1 S
0T
0U
0V
bx W
b0 [
b11111111111111111111111111111111 \
b100 f
0k
b10000000000000000010100 l
bx m
1q
b10000000000000000010100 r
1z
0~
#200000
0!
0=
#205000
1!
b10 !!
b10 "!
b10 #!
b100000100011000000100010 $
b10000000000000000010100 $!
b101 %!
b10000000000000000010100 &
b101 &!
b11111111111111111111111111111111 '
b100000100000 '!
b100000100000 (!
b11 )!
b11111111111111111111111111111111 *!
b100000100000 ,!
b10000010000000 -!
b10101 .
b10000000000000000010100 /!
b10 0
b10 1
b10000000000000000010100 1!
b10 2
b10000010000000 2!
b101 3
b101 4
b10000000010000010010100 4!
b10000000000000000010100 5
b10000000010000010010100 6!
b11111111111111111111111111111111 7
b10000000000000000010100 7!
b10 8
b0 8!
b10 9
b100000 9!
b1 :!
b10000000000000000010100 ;
b10 ;!
1=
b100000100011000000100010 @
b10000000000000000010100 A
b10000000010000010010100 B
0C
0E
0F
0G
b10000000000000000010100 H
b10000000000000000010100 I
b10000100000100000100000 J
0K
0N
b10000000000000000010100 O
0P
0Q
b101 R
b11 S
0T
0U
0V
b10000000000000000010100 W
b10 X
b10 Y
b10 Z
b101 [
b101 \
b11111111111111111111111111111111 ^
b100000100000 _
b100000100000 `
b10000010000000 a
b11111111111111111111111111111111 b
b100000100000 d
b10000010000000 e
b10000010000000 f
b0 g
b10000000000000000010100 h
b0 i
b10000000000000000010100 j
0k
b10000000010000010010100 l
b10000000000000000010100 m
b0 n
b100000 o
0p
0q
b10000000010000010010100 r
b10000000000000000010100 s
1u
b101 x
b101 y
0z
b100000100011000000100010 {
b100000100011000000100010 }
#210000
0!
0=
#215000
1!
b10000000010000010010100 $!
b101 '
b0 )!
b101 *!
b10110 .
1.!
b101 0!
b101 1!
b101 2!
b1010 4!
b10000000010000010010100 5
b101 6
b1010 6!
b101 7
b10000000010000010010100 7!
b10 :!
b11 ;!
b101 <!
1=
b100000 =!
b1010 B
0C
0F
0G
b10000000000000000010100 H
b10000000010000010010100 I
0K
0N
b10000000010000010010100 O
0P
0Q
b101 R
b0 S
1T
0U
0V
b10000000010000010010100 W
b101 ]
b101 ^
b101 b
b101 f
b101 i
b101 j
0k
b1010 l
b10000000010000010010100 m
b1010 r
#220000
0!
0=
#225000
1!
b1 !!
b1010 $!
b10111 .
0.!
b10000000000000000010100 1!
b1 2
b10000000000000000011001 4!
b1010 5
b10000000000000000011001 6!
b1010 7!
1:
b11 :!
b0 ;!
1=
b10000000000000000011001 B
0C
0F
0G
b10000000000000000010100 H
b1010 I
0K
0N
b1010 O
0P
0Q
b101 R
b0 S
0T
1U
1V
b1010 W
b1 Z
b10000000000000000010100 j
0k
b10000000000000000011001 l
b1010 m
b10000000000000000011001 r
1~
#230000
0!
0=
#235000
1!
b10 !!
b10000000000000000011001 $!
b1 )!
b11000 .
b10 2
b100 2!
b10000000000000000011000 4!
b10000000000000000011001 5
b10000000000000000011000 6!
b10000000000000000011001 7!
0:
b0 :!
b1 ;!
b100 <
1=
b10000000000000000011000 B
1C
1E
0F
0G
b10000000000000000010100 H
b10000000000000000011001 I
1K
0N
b10000000000000000011001 O
0P
0Q
b101 R
b1 S
0T
0U
0V
b10000000000000000011001 W
b10 Z
b101 [
b101 \
b100 f
0k
b10000000000000000011000 l
b10000000000000000011001 m
1q
b10000000000000000011000 r
1z
0~
#240000
0!
0=
#245000
1!
b100 "!
b10000110011100000100100 $
b10000000000000000011000 $!
b1010 %!
b10000000000000000011000 &
b11000000100010 '!
b11000000100010 (!
b11 )!
b11000000100010 ,!
b1100000010001000 -!
b11001 .
b10000000000000000011000 /!
b100 0
b10000000000000000011000 1!
b1100000010001000 2!
b1010 3
b10000001100000010100000 4!
b10000000000000000011000 5
b10000001100000010100000 6!
b10000000000000000011000 7!
b100 8
b100010 9!
b1 :!
b10000000000000000011000 ;
b10 ;!
1=
b10000110011100000100100 @
b10000000000000000011000 A
b10000001100000010100000 B
0C
0E
0F
0G
b10000000000000000011000 H
b10000000000000000011000 I
b100000100011000000100010 J
0K
0N
b10000000000000000011000 O
0P
0Q
b101 R
b11 S
0T
0U
0V
b10000000000000000011000 W
b100 X
b10 Z
b1010 [
b11000000100010 _
b11000000100010 `
b1100000010001000 a
b11000000100010 d
b1100000010001000 e
b1100000010001000 f
b10000000000000000011000 h
b10000000000000000011000 j
0k
b10000001100000010100000 l
b10000000000000000011000 m
b100010 o
0p
0q
b10000001100000010100000 r
b10000000000000000011000 s
1u
b110 x
b110 y
0z
b10000110011100000100100 {
b10000110011100000100100 }
#250000
0!
0=
#255000
1!
b10000001100000010100000 $!
b0 )!
b11010 .
1.!
b1010 0!
b1010 1!
b101 2!
b110 3!
b101 4!
b10000001100000010100000 5
b1010 6
b101 6!
b10000001100000010100000 7!
b10 :!
b11 ;!
b110 <!
1=
b100010 =!
b101 B
0C
0F
0G
b10000000000000000011000 H
b10000001100000010100000 I
0K
0N
b10000001100000010100000 O
0P
0Q
b110 R
b0 S
1T
0U
0V
b10000001100000010100000 W
b1010 ]
b101 f
b1010 i
b1010 j
0k
b101 l
b10000001100000010100000 m
b101 r
#260000
0!
0=
#265000
1!
b110 !!
b101 $!
b11011 .
0.!
b10000000000000000011000 1!
b110 2
b101 3!
b10000000000000000011101 4!
b101 5
b10000000000000000011101 6!
b101 7!
1:
b11 :!
b0 ;!
1=
b10000000000000000011101 B
0C
0F
0G
b10000000000000000011000 H
b101 I
0K
0N
b101 O
0P
0Q
b101 R
b0 S
0T
1U
1V
b101 W
b110 Z
b10000000000000000011000 j
0k
b10000000000000000011101 l
b101 m
b10000000000000000011101 r
1~
#270000
0!
0=
#275000
1!
b10 !!
b10000000000000000011101 $!
b1 )!
b11100 .
b10 2
b100 2!
b10000000000000000011100 4!
b10000000000000000011101 5
b10000000000000000011100 6!
b10000000000000000011101 7!
0:
b0 :!
b1 ;!
b101 <
1=
b10000000000000000011100 B
1C
1E
0F
0G
b10000000000000000011000 H
b10000000000000000011101 I
1K
0N
b10000000000000000011101 O
0P
0Q
b101 R
b1 S
0T
0U
0V
b10000000000000000011101 W
b10 Z
b1010 [
b101 \
b100 f
0k
b10000000000000000011100 l
b10000000000000000011101 m
1q
b10000000000000000011100 r
1z
0~
#280000
0!
0=
